<svg xmlns="http://www.w3.org/2000/svg" xmlns:xlink="http://www.w3.org/1999/xlink" version="1.1" id="Layer_1" x="0px" y="0px" style="enable-background:new 0 0 595.3 841.9;" xml:space="preserve" viewBox="87.3 99.1 384 336.9">
<style type="text/css">
	.st0{fill:#95C11F;}
	.st1{fill:#66BDCD;}
	.st2{fill:#F49600;}
	.st3{fill:#FFCA00;}
	.st4{fill:#E30613;}
	.st5{fill:#E84E0F;}
	.st6{fill:#D8E9EE;}
	.st7{fill:#71B2E2;}
	.st8{fill:#C5E2F7;}
	.st9{fill:#91C6EC;}
	.st10{fill:#FFD404;}
	.st11{fill:#FCC10E;}
	.st12{fill:none;stroke:#010202;stroke-width:0.75;stroke-linecap:round;stroke-linejoin:round;stroke-miterlimit:10;}
	.st13{fill:none;stroke:#000000;stroke-width:0.75;stroke-miterlimit:10;}
	.st14{fill:none;stroke:#000000;stroke-width:0.75;stroke-linecap:round;stroke-linejoin:round;stroke-miterlimit:10;}
	.st15{fill:#EE7203;}
	.st16{fill:#759819;}
	.st17{fill:#FFDB02;}
	.st18{fill:#FFEB3C;}
	.st19{fill:#5195A1;}
	
		.st20{fill:none;stroke:#010202;stroke-width:0.75;stroke-linecap:round;stroke-linejoin:round;stroke-miterlimit:10;stroke-dasharray:2.7743,2.7743;}
	.st21{fill:#C8D7DC;}
	
		.st22{fill:none;stroke:#010202;stroke-width:0.75;stroke-linecap:round;stroke-linejoin:round;stroke-miterlimit:10;stroke-dasharray:2.6258,2.6258;}
	
		.st23{fill:none;stroke:#010202;stroke-width:0.75;stroke-linecap:round;stroke-linejoin:round;stroke-miterlimit:10;stroke-dasharray:3.3955,3.3955;}
</style>
<path class="st0" d="M218.7,343.7l7.4,5.9c1.2,8.5,5.1,16.8,11.7,23.3c16.1,16.1,42.3,16.1,58.5,0c0,0,0,0,0.1-0.1l-0.9-6.5  l-6.7-1.2c0,0,0,0-0.1,0.1c-11.9,11.9-31.2,11.9-43.1,0c-11.9-11.9-11.9-31.3,0-43.1c5.8-5.8,13.4-8.9,21.6-8.9  c8.1,0,15.8,3.1,21.5,8.9l5.8-1.8l1.8-5.8c-7.8-7.8-18.2-12-29.2-12c-11,0-21.4,4.3-29.2,12.1c-6.6,6.5-10.4,14.8-11.7,23.3  L218.7,343.7L218.7,343.7z"/>
<path class="st1" d="M317.8,425.1c-8.1,0-15.8-3.2-21.6-8.9l-7.7,7.7c7.8,7.8,18.2,12.1,29.2,12.1c11,0,21.4-4.3,29.2-12.1  c6.4-6.4,10.4-14.5,11.7-23.3l7.4-5.9l-7.4-5.9c-1.3-8.8-5.3-16.9-11.7-23.3c-7.8-7.8-18.2-12.1-29.2-12.1c-11,0-21.4,4.3-29.2,12  l6.7,1.2l0.9,6.5c5.8-5.7,13.4-8.9,21.5-8.9c8.2,0,15.8,3.2,21.6,8.9c5.8,5.8,8.9,13.4,8.9,21.6c0,8.2-3.2,15.8-8.9,21.6  C333.6,421.9,325.9,425.1,317.8,425.1L317.8,425.1z"/>
<path class="st2" d="M218.7,242.1l7.4,5.9c1.2,8.5,5.1,16.8,11.7,23.3c16.1,16.1,42.3,16.1,58.5,0c0,0,0,0,0.1-0.1l-1.2-6.4  l-6.4-1.3l-0.1,0.1c-11.9,11.9-31.2,11.9-43.1,0c-11.9-11.9-11.9-31.2,0-43.1c5.8-5.8,13.4-8.9,21.6-8.9c8.1,0,15.8,3.1,21.5,8.9  l5.8-1.8l1.8-5.8c-7.8-7.8-18.2-12-29.2-12c-11,0-21.4,4.3-29.2,12.1c-6.6,6.6-10.4,14.8-11.7,23.3L218.7,242.1L218.7,242.1z"/>
<path class="st3" d="M296.3,271.3c11.9-11.8,31.2-11.8,43.1,0.1c5.8,5.8,8.9,13.4,8.9,21.6c0,8.2-3.2,15.8-8.9,21.6  c-11.9,11.9-31.2,11.9-43.1,0c0,0,0,0-0.1-0.1l-6.5,1.2l-1.2,6.4l0.1,0.1c16.1,16.1,42.3,16.1,58.5,0c6.4-6.4,10.4-14.5,11.7-23.3  l7.4-5.9l-7.4-5.9c-1.3-8.8-5.3-16.9-11.7-23.3c-8.1-8.1-18.6-12.1-29.2-12.1c-10.6,0-21.1,4-29.2,12l6.4,1.3L296.3,271.3  L296.3,271.3z"/>
<path class="st4" d="M218.7,140.5l7.4,5.9c1.2,8.5,5.1,16.8,11.7,23.3c16.1,16.1,42.3,16.1,58.5,0c0,0,0,0,0.1-0.1l-1.2-6.2  l-6.4-1.4c0,0,0,0-0.1,0.1c-11.9,11.9-31.2,11.9-43.1,0c-11.9-11.9-11.9-31.3,0-43.2c11.9-11.9,31.3-11.9,43.1,0l7.7-7.7  c-8.1-8.1-18.6-12.1-29.2-12.1c-10.6,0-21.2,4-29.2,12.1c-6.6,6.6-10.4,14.8-11.7,23.3L218.7,140.5L218.7,140.5z"/>
<path class="st5" d="M296.3,169.7c5.8-5.7,13.4-8.9,21.5-8.9c8.2,0,15.8,3.2,21.6,8.9c5.8,5.8,8.9,13.4,8.9,21.6  c0,8.1-3.2,15.8-8.9,21.6c-5.8,5.8-13.4,8.9-21.6,8.9c-8.1,0-15.8-3.2-21.6-8.9c0,0,0,0-0.1-0.1l-6.5,1.4l-1.2,6.3l0.1,0.1  c7.8,7.8,18.2,12.1,29.2,12.1c11,0,21.4-4.3,29.2-12.1c6.4-6.4,10.4-14.5,11.7-23.3l7.4-5.9l-7.4-5.9c-1.2-8.8-5.3-16.9-11.7-23.3  c-7.8-7.8-18.2-12.1-29.2-12.1c-11,0-21.4,4.3-29.2,12l6.4,1.4L296.3,169.7L296.3,169.7z"/>
<path class="st6" d="M347,394.5c0-16.1-13.1-29.2-29.2-29.2c-16.1,0-29.2,13.1-29.2,29.2s13.1,29.2,29.2,29.2  C333.9,423.7,347,410.7,347,394.5L347,394.5z"/>
<path class="st6" d="M296.2,343.7c0-16.1-13.1-29.2-29.2-29.2c-16.1,0-29.2,13.1-29.2,29.2c0,16.1,13.1,29.2,29.2,29.2  C283.1,372.9,296.2,359.9,296.2,343.7L296.2,343.7z"/>
<path class="st6" d="M347,292.9c0-16.1-13.1-29.2-29.2-29.2c-16.1,0-29.2,13.1-29.2,29.2s13.1,29.2,29.2,29.2  C333.9,322.1,347,309.1,347,292.9L347,292.9z"/>
<path class="st6" d="M347,191.3c0-16.1-13.1-29.2-29.2-29.2c-16.1,0-29.2,13.1-29.2,29.2c0,16.1,13.1,29.2,29.2,29.2  C333.9,220.5,347,207.5,347,191.3L347,191.3z"/>
<path class="st6" d="M296.2,140.5c0-16.1-13.1-29.2-29.2-29.2c-16.1,0-29.2,13.1-29.2,29.2s13.1,29.2,29.2,29.2  C283.1,169.7,296.2,156.7,296.2,140.5L296.2,140.5z"/>
<path class="st6" d="M296.2,242.1c0-16.1-13.1-29.2-29.2-29.2c-16.1,0-29.2,13.1-29.2,29.2c0,16.1,13.1,29.2,29.2,29.2  C283.1,271.3,296.2,258.3,296.2,242.1L296.2,242.1z"/>
<path d="M255.7,152c-1.3,0-2.2,0.6-2.2,1.6c0,2.3,3.5,1.4,3.5,3c0,0.6-0.6,1-1.5,1c-0.7,0-1.5-0.3-2.1-0.9l-0.3,0.6  c0.6,0.6,1.5,1,2.4,1c1.4,0,2.3-0.7,2.3-1.7c0-2.3-3.5-1.4-3.5-3.1c0-0.5,0.5-0.8,1.3-0.8c0.5,0,1.2,0.2,1.7,0.5l0.3-0.7  C257.2,152.3,256.4,152,255.7,152L255.7,152z M263.3,152.8v-0.7h-4.8v0.7h2.1v5.6h0.7v-5.6H263.3L263.3,152.8z M267.8,156.8l0.7,1.6  h0.8l-2.8-6.3h-0.7l-2.8,6.3h0.8l0.7-1.6H267.8L267.8,156.8z M267.4,156.1h-2.8l1.4-3.2L267.4,156.1L267.4,156.1z M274.5,155.3v1.9  c-0.5,0.3-1.1,0.5-1.7,0.5c-1.4,0-2.6-1.1-2.6-2.5c0-1.4,1.2-2.5,2.6-2.5c0.7,0,1.4,0.3,1.9,0.7l0.4-0.5c-0.6-0.5-1.4-0.9-2.3-0.9  c-1.9,0-3.3,1.4-3.3,3.2c0,1.8,1.5,3.2,3.3,3.2c0.8,0,1.7-0.3,2.3-0.8v-2.3H274.5L274.5,155.3z M281.1,152.8v-0.7h-4.3v6.3h4.4v-0.7  h-3.7v-2.2h3.2v-0.7h-3.2v-2.1H281.1L281.1,152.8z"/>
<path d="M267.3,123.5c-7.1,0-10.9,4.3-10.9,12.1c0,7.8,3.9,12.2,10.9,12.2c7,0,10.9-4.4,10.9-12.2  C278.2,127.8,274.3,123.5,267.3,123.5L267.3,123.5z M267.3,129.2c2.1,0,2.8,1.6,2.8,6.4s-0.7,6.5-2.8,6.5c-2.1,0-2.9-1.6-2.9-6.5  S265.2,129.2,267.3,129.2L267.3,129.2z"/>
<path d="M308.2,202.1c-1.3,0-2.2,0.6-2.2,1.6c0,2.3,3.5,1.4,3.5,3c0,0.6-0.6,1-1.5,1c-0.7,0-1.5-0.3-2.1-0.9l-0.3,0.6  c0.6,0.6,1.5,1,2.4,1c1.4,0,2.3-0.7,2.3-1.7c0-2.3-3.5-1.4-3.5-3.1c0-0.5,0.5-0.8,1.3-0.8c0.5,0,1.2,0.2,1.7,0.5l0.3-0.7  C309.7,202.3,308.9,202.1,308.2,202.1L308.2,202.1z M315.8,202.8v-0.7H311v0.7h2.1v5.6h0.7v-5.6H315.8L315.8,202.8z M320.2,206.8  l0.7,1.6h0.8l-2.8-6.3h-0.7l-2.8,6.3h0.8l0.7-1.6H320.2L320.2,206.8z M319.9,206.1h-2.8l1.4-3.2L319.9,206.1L319.9,206.1z   M327,205.3v1.9c-0.5,0.3-1.1,0.5-1.7,0.5c-1.4,0-2.6-1.1-2.6-2.5c0-1.4,1.2-2.5,2.6-2.5c0.7,0,1.4,0.3,1.9,0.7l0.4-0.5  c-0.6-0.5-1.4-0.9-2.3-0.9c-1.9,0-3.3,1.4-3.3,3.2c0,1.8,1.5,3.2,3.3,3.2c0.8,0,1.7-0.3,2.3-0.8v-2.3H327L327,205.3z M333.6,202.8  v-0.7h-4.3v6.3h4.4v-0.7h-3.7v-2.2h3.2v-0.7h-3.2v-2.1H333.6L333.6,202.8z"/>
<polygon points="324.5,197.6 324.5,173.8 312.5,173.8 312.5,180 316.6,180 316.6,197.6 324.5,197.6 "/>
<path d="M255.7,252.1c-1.3,0-2.2,0.6-2.2,1.6c0,2.3,3.5,1.4,3.5,3c0,0.6-0.6,1-1.5,1c-0.7,0-1.5-0.3-2.1-0.9l-0.3,0.6  c0.6,0.6,1.5,1,2.4,1c1.4,0,2.3-0.7,2.3-1.7c0-2.3-3.5-1.4-3.5-3.1c0-0.5,0.5-0.8,1.3-0.8c0.5,0,1.2,0.2,1.7,0.5l0.3-0.7  C257.2,252.3,256.4,252.1,255.7,252.1L255.7,252.1z M263.3,252.8v-0.7h-4.8v0.7h2.1v5.6h0.7v-5.6H263.3L263.3,252.8z M267.8,256.8  l0.7,1.6h0.8l-2.8-6.3h-0.7l-2.8,6.3h0.8l0.7-1.6H267.8L267.8,256.8z M267.4,256.1h-2.8l1.4-3.2L267.4,256.1L267.4,256.1z   M274.5,255.3v1.9c-0.5,0.3-1.1,0.5-1.7,0.5c-1.4,0-2.6-1.1-2.6-2.5c0-1.4,1.2-2.5,2.6-2.5c0.7,0,1.4,0.3,1.9,0.7l0.4-0.5  c-0.6-0.5-1.4-0.9-2.3-0.9c-1.9,0-3.3,1.4-3.3,3.2c0,1.8,1.5,3.2,3.3,3.2c0.8,0,1.7-0.3,2.3-0.8v-2.3H274.5L274.5,255.3z   M281.1,252.8v-0.7h-4.3v6.3h4.4v-0.7h-3.7v-2.2h3.2v-0.7h-3.2v-2.1H281.1L281.1,252.8z"/>
<path d="M267.9,223.4c-3.7,0-7.2,1.4-10.6,3.7l2.9,5.7c2.3-1.9,4.7-3.1,6.5-3.1c1,0,1.6,0.4,1.6,1.3c0,0.8-0.8,2-1.7,3l-8.3,8.6v4.9  h18.6v-6.1h-8.6l3.6-3.6c2.7-2.7,4.6-5.3,4.6-8.1C276.5,226,272.8,223.4,267.9,223.4L267.9,223.4z"/>
<path d="M308.2,302.9c-1.3,0-2.2,0.6-2.2,1.6c0,2.3,3.5,1.4,3.5,3c0,0.6-0.6,1-1.5,1c-0.7,0-1.5-0.3-2.1-0.9l-0.3,0.6  c0.6,0.6,1.5,1,2.4,1c1.4,0,2.3-0.7,2.3-1.7c0-2.3-3.5-1.4-3.5-3.1c0-0.5,0.5-0.8,1.3-0.8c0.5,0,1.2,0.2,1.7,0.5l0.3-0.7  C309.7,303.1,308.9,302.9,308.2,302.9L308.2,302.9z M315.8,303.6v-0.7H311v0.7h2.1v5.6h0.7v-5.6H315.8L315.8,303.6z M320.2,307.6  l0.7,1.6h0.8l-2.8-6.3h-0.7l-2.8,6.3h0.8l0.7-1.6H320.2L320.2,307.6z M319.9,306.9h-2.8l1.4-3.2L319.9,306.9L319.9,306.9z   M327,306.1v1.9c-0.5,0.3-1.1,0.5-1.7,0.5c-1.4,0-2.6-1.1-2.6-2.5c0-1.4,1.2-2.5,2.6-2.5c0.7,0,1.4,0.3,1.9,0.7l0.4-0.5  c-0.6-0.5-1.4-0.9-2.3-0.9c-1.9,0-3.3,1.4-3.3,3.2c0,1.8,1.5,3.2,3.3,3.2c0.8,0,1.7-0.3,2.3-0.8v-2.3H327L327,306.1z M333.6,303.6  v-0.7h-4.3v6.3h4.4v-0.7h-3.7v-2.2h3.2v-0.7h-3.2v-2.1H333.6L333.6,303.6z"/>
<path d="M322.7,284l5.1-4.9v-4.4h-16.8v5.7h7.9l-4.5,4.3v4.1h4.3c1.6,0,2.4,0.7,2.4,2.1c0,1.4-0.8,2.1-2.4,2.1c-2.1,0-4-1.1-5.8-3.3  l-3.1,6c2.3,1.9,6.1,3.2,9.6,3.2c5.8,0,9.5-3.3,9.5-7.9c0-3.6-2.2-5.9-5.2-6.6L322.7,284L322.7,284z"/>
<path d="M255.7,353.1c-1.3,0-2.2,0.6-2.2,1.6c0,2.3,3.5,1.4,3.5,3c0,0.6-0.6,1-1.5,1c-0.7,0-1.5-0.3-2.1-0.9l-0.3,0.6  c0.6,0.6,1.5,1,2.4,1c1.4,0,2.3-0.7,2.3-1.7c0-2.3-3.5-1.4-3.5-3.1c0-0.5,0.5-0.8,1.3-0.8c0.5,0,1.2,0.2,1.7,0.5l0.3-0.7  C257.2,353.3,256.4,353.1,255.7,353.1L255.7,353.1z M263.3,353.8v-0.7h-4.8v0.7h2.1v5.6h0.7v-5.6H263.3L263.3,353.8z M267.8,357.8  l0.7,1.6h0.8l-2.8-6.3h-0.7l-2.8,6.3h0.8l0.7-1.6H267.8L267.8,357.8z M267.4,357.1h-2.8l1.4-3.2L267.4,357.1L267.4,357.1z   M274.5,356.3v1.9c-0.5,0.3-1.1,0.5-1.7,0.5c-1.4,0-2.6-1.1-2.6-2.5c0-1.4,1.2-2.5,2.6-2.5c0.7,0,1.4,0.3,1.9,0.7l0.4-0.5  c-0.6-0.5-1.4-0.9-2.3-0.9c-1.9,0-3.3,1.4-3.3,3.2c0,1.8,1.5,3.2,3.3,3.2c0.8,0,1.7-0.3,2.3-0.8v-2.3H274.5L274.5,356.3z   M281.1,353.8v-0.7h-4.3v6.3h4.4v-0.7h-3.7v-2.2h3.2v-0.7h-3.2v-2.1H281.1L281.1,353.8z"/>
<polygon points="264.9,338.4 271.4,324.8 263.8,324.8 256.9,338.8 256.9,344 268.1,344 268.1,348.6 275.4,348.6 275.4,344   278.4,344 278.4,338.4 275.4,338.4 275.4,333.8 268.1,333.8 268.1,338.4 264.9,338.4 "/>
<path d="M308.2,404.9c-1.3,0-2.2,0.6-2.2,1.6c0,2.3,3.5,1.4,3.5,3c0,0.6-0.6,1-1.5,1c-0.7,0-1.5-0.3-2.1-0.9l-0.3,0.6  c0.6,0.6,1.5,1,2.4,1c1.4,0,2.3-0.7,2.3-1.7c0-2.3-3.5-1.4-3.5-3.1c0-0.5,0.5-0.8,1.3-0.8c0.5,0,1.2,0.2,1.7,0.5l0.3-0.7  C309.7,405.1,308.9,404.9,308.2,404.9L308.2,404.9z M315.8,405.6v-0.7H311v0.7h2.1v5.6h0.7v-5.6H315.8L315.8,405.6z M320.2,409.6  l0.7,1.6h0.8l-2.8-6.3h-0.7l-2.8,6.3h0.8l0.7-1.6H320.2L320.2,409.6z M319.9,408.9h-2.8l1.4-3.2L319.9,408.9L319.9,408.9z   M327,408.1v1.9c-0.5,0.3-1.1,0.5-1.7,0.5c-1.4,0-2.6-1.1-2.6-2.5c0-1.4,1.2-2.5,2.6-2.5c0.7,0,1.4,0.3,1.9,0.7l0.4-0.5  c-0.6-0.5-1.4-0.9-2.3-0.9c-1.9,0-3.3,1.4-3.3,3.2c0,1.8,1.5,3.2,3.3,3.2c0.8,0,1.7-0.3,2.3-0.8v-2.3H327L327,408.1z M333.6,405.6  v-0.7h-4.3v6.3h4.4v-0.7h-3.7v-2.2h3.2v-0.7h-3.2v-2.1H333.6L333.6,405.6z"/>
<path d="M328.3,382.6v-6.1h-16.6v14.3h6.7c1.7,0,2.6,0.6,2.6,1.9c0,1.4-0.9,2.1-2.6,2.1c-2.1,0-4-1.1-5.7-3.3l-3.1,6  c2.6,1.9,6.5,3.2,9.8,3.2c6.1,0,10.1-3.3,10.1-8.5c0-4.4-3.7-7.1-9.5-7.1h-1.1v-2.5H328.3L328.3,382.6z"/>
<path d="M138.7,147.8c-1.8,0-3.2,1.3-3.2,3c0,1.7,1.3,3,3.1,3c0.9,0,1.8-0.4,2.4-1.1l-0.8-0.9c-0.4,0.4-1,0.7-1.5,0.7  c-1,0-1.8-0.8-1.8-1.8c0-1,0.8-1.8,1.8-1.8c0.6,0,1.1,0.3,1.5,0.8l0.8-1C140.4,148.2,139.5,147.8,138.7,147.8L138.7,147.8z   M143.7,149.2c-1.5,0-2.5,0.9-2.5,2.3c0,1.4,1,2.3,2.5,2.3c1.5,0,2.4-0.9,2.4-2.3C146.2,150.1,145.2,149.2,143.7,149.2L143.7,149.2z   M143.7,150.3c0.7,0,1.1,0.5,1.1,1.3c0,0.7-0.5,1.3-1.1,1.3c-0.7,0-1.1-0.5-1.1-1.3C142.6,150.8,143,150.3,143.7,150.3L143.7,150.3z   M149.9,149.2c-0.7,0-1.3,0.3-1.6,0.8v-0.8H147v4.6h1.3v-2.3c0-0.7,0.4-1.2,1-1.2c0.6,0,0.9,0.4,0.9,0.9v2.5h1.3V151  C151.6,149.9,151,149.2,149.9,149.2L149.9,149.2z M154.7,149.2c-1.4,0-2.3,0.9-2.3,2.3c0,1.4,0.9,2.3,2.3,2.3c0.9,0,1.6-0.4,2-1  l-0.9-0.6c-0.2,0.4-0.6,0.5-1.1,0.5c-0.6,0-1.1-0.5-1.1-1.2c0-0.7,0.5-1.2,1.1-1.2c0.5,0,0.8,0.2,1,0.5l0.9-0.6  C156.3,149.6,155.6,149.2,154.7,149.2L154.7,149.2z M159.3,149.2c-1.4,0-2.4,0.9-2.4,2.3c0,1.4,0.9,2.3,2.4,2.3c0.8,0,1.5-0.3,2-0.8  l-0.7-0.7c-0.3,0.3-0.7,0.5-1.2,0.5c-0.6,0-1-0.3-1.2-0.9h3.3C161.7,150.3,160.9,149.2,159.3,149.2L159.3,149.2z M158.3,151.2  c0.1-0.6,0.5-1,1.1-1c0.6,0,1,0.4,1,1H158.3L158.3,151.2z M165.2,149.2c-0.6,0-1.1,0.3-1.4,0.7v-0.7h-1.3v6.2h1.3v-2.3  c0.3,0.5,0.8,0.7,1.5,0.7c1.3,0,2.1-0.9,2.1-2.3C167.4,150.2,166.5,149.2,165.2,149.2L165.2,149.2z M164.9,152.8  c-0.7,0-1.1-0.5-1.1-1.3c0-0.7,0.5-1.3,1.1-1.3c0.7,0,1.1,0.5,1.1,1.3C166.1,152.3,165.6,152.8,164.9,152.8L164.9,152.8z   M170.8,152.6c-0.2,0.1-0.4,0.2-0.6,0.2c-0.3,0-0.4-0.1-0.4-0.5v-1.9h1.2v-0.9h-1.2v-1.3h-1.3v1.3h-0.6v0.9h0.6v2.1  c0,0.9,0.6,1.4,1.4,1.4c0.4,0,0.9-0.1,1.2-0.3L170.8,152.6L170.8,152.6z M175.9,149.2c-1.4,0-2.3,0.9-2.3,2.3c0,1.4,0.9,2.3,2.3,2.3  c0.9,0,1.6-0.4,2-1l-0.9-0.6c-0.2,0.4-0.6,0.5-1.1,0.5c-0.6,0-1.1-0.5-1.1-1.2c0-0.7,0.5-1.2,1.1-1.2c0.5,0,0.8,0.2,1,0.5l0.9-0.6  C177.5,149.6,176.8,149.2,175.9,149.2L175.9,149.2z M180,149.3h-1.3v4.6h1.3v-2.2c0-0.8,0.6-1.3,1.5-1.2v-1.2  c-0.7,0-1.2,0.3-1.5,0.9V149.3L180,149.3z M184.2,149.2c-1.4,0-2.4,0.9-2.4,2.3c0,1.4,0.9,2.3,2.4,2.3c0.8,0,1.5-0.3,2-0.8l-0.7-0.7  c-0.3,0.3-0.7,0.5-1.2,0.5c-0.6,0-1-0.3-1.2-0.9h3.3C186.6,150.3,185.8,149.2,184.2,149.2L184.2,149.2z M183.1,151.2  c0.1-0.6,0.5-1,1.1-1c0.6,0,1,0.4,1,1H183.1L183.1,151.2z M190,153.8h1.3l0-3c0-1-0.7-1.6-1.9-1.6c-0.8,0-1.4,0.2-2.1,0.5l0.4,0.9  c0.5-0.3,1-0.4,1.4-0.4c0.6,0,1,0.3,1,0.8v0.1h-1.3c-1.1,0-1.7,0.5-1.7,1.4c0,0.8,0.6,1.4,1.6,1.4c0.6,0,1.1-0.2,1.4-0.6V153.8  L190,153.8z M188.9,153c-0.4,0-0.7-0.2-0.7-0.6c0-0.4,0.2-0.5,0.7-0.5h1v0.4C189.9,152.7,189.5,153,188.9,153L188.9,153z   M194.9,152.6c-0.2,0.1-0.4,0.2-0.6,0.2c-0.3,0-0.4-0.1-0.4-0.5v-1.9h1.2v-0.9h-1.2v-1.3h-1.3v1.3H192v0.9h0.6v2.1  c0,0.9,0.6,1.4,1.4,1.4c0.4,0,0.9-0.1,1.2-0.3L194.9,152.6L194.9,152.6z M196.7,147.2c-0.4,0-0.7,0.3-0.7,0.7s0.3,0.7,0.7,0.7  c0.4,0,0.7-0.3,0.7-0.7S197.1,147.2,196.7,147.2L196.7,147.2z M197.3,153.8v-4.6H196v4.6H197.3L197.3,153.8z M200.6,149.2  c-1.5,0-2.5,0.9-2.5,2.3c0,1.4,1,2.3,2.5,2.3c1.5,0,2.4-0.9,2.4-2.3C203.1,150.1,202.1,149.2,200.6,149.2L200.6,149.2z M200.6,150.3  c0.7,0,1.1,0.5,1.1,1.3c0,0.7-0.5,1.3-1.1,1.3c-0.7,0-1.1-0.5-1.1-1.3C199.5,150.8,200,150.3,200.6,150.3L200.6,150.3z M206.8,149.2  c-0.7,0-1.3,0.3-1.6,0.8v-0.8H204v4.6h1.3v-2.3c0-0.7,0.4-1.2,1-1.2c0.6,0,0.9,0.4,0.9,0.9v2.5h1.3V151  C208.5,149.9,207.9,149.2,206.8,149.2L206.8,149.2z"/>
<path d="M122.7,249.9v5.9h2.5c1.9,0,3.2-1.2,3.2-3c0-1.8-1.3-3-3.1-3H122.7L122.7,249.9z M124,251h1.2c1,0,1.8,0.8,1.8,1.9  c0,1.1-0.7,1.8-1.7,1.8H124V251L124,251z M131.2,251.2c-1.4,0-2.4,0.9-2.4,2.3c0,1.4,0.9,2.3,2.4,2.3c0.8,0,1.5-0.3,2-0.8l-0.7-0.7  c-0.3,0.3-0.7,0.5-1.2,0.5c-0.6,0-1-0.3-1.2-0.9h3.3C133.5,252.3,132.8,251.2,131.2,251.2L131.2,251.2z M130.1,253.2  c0.1-0.6,0.5-1,1.1-1c0.6,0,1,0.4,1,1H130.1L130.1,253.2z M135.8,251.2c-1,0-1.8,0.5-1.8,1.4c0,1.6,2.4,1.2,2.4,1.9  c0,0.2-0.2,0.4-0.6,0.4c-0.5,0-1.1-0.2-1.6-0.6l-0.4,0.9c0.5,0.4,1.2,0.6,2,0.6c1,0,1.9-0.5,1.9-1.4c0-1.6-2.4-1.3-2.4-2  c0-0.2,0.2-0.3,0.5-0.3c0.4,0,0.9,0.2,1.4,0.4l0.4-0.9C137.1,251.4,136.4,251.2,135.8,251.2L135.8,251.2z M139.2,249.2  c-0.4,0-0.7,0.3-0.7,0.7c0,0.4,0.3,0.7,0.7,0.7c0.4,0,0.7-0.3,0.7-0.7C139.9,249.5,139.6,249.2,139.2,249.2L139.2,249.2z   M139.8,255.8v-4.6h-1.3v4.6H139.8L139.8,255.8z M145.4,251.3h-1.3v0.6c-0.3-0.4-0.8-0.7-1.4-0.7c-1.2,0-2,0.9-2,2.2  c0,1.3,0.8,2.2,2,2.2c0.6,0,1.1-0.2,1.4-0.7v0.5c0,0.6-0.5,1-1.2,1c-0.5,0-1-0.2-1.4-0.5l-0.5,0.9c0.5,0.4,1.2,0.6,2,0.6  c1.5,0,2.4-0.8,2.4-2.1V251.3L145.4,251.3z M143,254.6c-0.6,0-1.1-0.5-1.1-1.2c0-0.7,0.4-1.2,1.1-1.2s1.1,0.5,1.1,1.2  C144.1,254.1,143.6,254.6,143,254.6L143,254.6z M149.4,251.2c-0.7,0-1.3,0.3-1.6,0.8v-0.8h-1.3v4.6h1.3v-2.3c0-0.7,0.4-1.2,1-1.2  c0.6,0,0.9,0.4,0.9,0.9v2.5h1.3V253C151.1,251.9,150.5,251.2,149.4,251.2L149.4,251.2z M156.4,251.2c-1.5,0-2.5,0.9-2.5,2.3  c0,1.4,1,2.3,2.5,2.3c1.5,0,2.4-0.9,2.4-2.3C158.8,252.1,157.8,251.2,156.4,251.2L156.4,251.2z M156.4,252.3c0.7,0,1.1,0.5,1.1,1.3  c0,0.7-0.5,1.3-1.1,1.3c-0.7,0-1.1-0.5-1.1-1.3C155.2,252.8,155.7,252.3,156.4,252.3L156.4,252.3z M162.5,251.2  c-0.6,0-1.1,0.3-1.4,0.7v-0.7h-1.3v6.2h1.3v-2.3c0.3,0.5,0.8,0.7,1.5,0.7c1.3,0,2.1-0.9,2.1-2.3  C164.6,252.2,163.8,251.2,162.5,251.2L162.5,251.2z M162.2,254.8c-0.7,0-1.1-0.5-1.1-1.3c0-0.7,0.5-1.3,1.1-1.3  c0.7,0,1.1,0.5,1.1,1.3C163.3,254.3,162.8,254.8,162.2,254.8L162.2,254.8z M168.1,254.6c-0.2,0.1-0.4,0.2-0.6,0.2  c-0.3,0-0.4-0.1-0.4-0.5v-1.9h1.2v-0.9H167v-1.3h-1.3v1.3h-0.6v0.9h0.6v2.1c0,0.9,0.6,1.4,1.4,1.4c0.4,0,0.9-0.1,1.2-0.3  L168.1,254.6L168.1,254.6z M169.8,249.2c-0.4,0-0.7,0.3-0.7,0.7c0,0.4,0.3,0.7,0.7,0.7c0.4,0,0.7-0.3,0.7-0.7  C170.5,249.5,170.2,249.2,169.8,249.2L169.8,249.2z M170.4,255.8v-4.6h-1.3v4.6H170.4L170.4,255.8z M177.7,251.2  c-0.8,0-1.4,0.3-1.7,1.1c-0.2-0.7-0.8-1.1-1.5-1.1c-0.7,0-1.2,0.3-1.5,0.8v-0.8h-1.3v4.6h1.3v-2.3c0-0.7,0.4-1.2,1-1.2  c0.5,0,0.9,0.3,0.9,0.9v2.5h1.3v-2.3c0-0.7,0.4-1.2,1-1.2c0.5,0,0.9,0.3,0.9,0.9v2.5h1.3V253C179.4,251.9,178.7,251.2,177.7,251.2  L177.7,251.2z M181.2,249.2c-0.4,0-0.7,0.3-0.7,0.7c0,0.4,0.3,0.7,0.7,0.7c0.4,0,0.7-0.3,0.7-0.7  C181.9,249.5,181.6,249.2,181.2,249.2L181.2,249.2z M181.8,255.8v-4.6h-1.3v4.6H181.8L181.8,255.8z M184.6,251.2  c-1,0-1.8,0.5-1.8,1.4c0,1.6,2.4,1.2,2.4,1.9c0,0.2-0.2,0.4-0.6,0.4c-0.5,0-1.1-0.2-1.6-0.6l-0.4,0.9c0.5,0.4,1.2,0.6,2,0.6  c1,0,1.9-0.5,1.9-1.4c0-1.6-2.4-1.3-2.4-2c0-0.2,0.2-0.3,0.5-0.3c0.4,0,0.9,0.2,1.4,0.4l0.5-0.9  C185.9,251.4,185.3,251.2,184.6,251.2L184.6,251.2z M190,255.8h1.3l0-3c0-1-0.7-1.6-1.9-1.6c-0.8,0-1.4,0.2-2.1,0.5l0.4,0.9  c0.5-0.3,1-0.4,1.4-0.4c0.6,0,1,0.3,1,0.8v0.1h-1.3c-1.1,0-1.7,0.5-1.7,1.4c0,0.8,0.6,1.4,1.6,1.4c0.6,0,1.1-0.2,1.4-0.6V255.8  L190,255.8z M188.9,255c-0.4,0-0.7-0.2-0.7-0.6c0-0.4,0.2-0.5,0.7-0.5h1v0.4C189.9,254.7,189.5,255,188.9,255L188.9,255z   M194.9,254.6c-0.2,0.1-0.4,0.2-0.6,0.2c-0.3,0-0.4-0.1-0.4-0.5v-1.9h1.2v-0.9h-1.2v-1.3h-1.3v1.3H192v0.9h0.6v2.1  c0,0.9,0.6,1.4,1.4,1.4c0.4,0,0.9-0.1,1.2-0.3L194.9,254.6L194.9,254.6z M196.7,249.2c-0.4,0-0.7,0.3-0.7,0.7c0,0.4,0.3,0.7,0.7,0.7  c0.4,0,0.7-0.3,0.7-0.7C197.4,249.5,197.1,249.2,196.7,249.2L196.7,249.2z M197.3,255.8v-4.6H196v4.6H197.3L197.3,255.8z   M200.6,251.2c-1.5,0-2.5,0.9-2.5,2.3c0,1.4,1,2.3,2.5,2.3c1.5,0,2.4-0.9,2.4-2.3C203.1,252.1,202.1,251.2,200.6,251.2L200.6,251.2z   M200.6,252.3c0.7,0,1.1,0.5,1.1,1.3c0,0.7-0.5,1.3-1.1,1.3c-0.7,0-1.1-0.5-1.1-1.3C199.5,252.8,200,252.3,200.6,252.3L200.6,252.3z   M206.8,251.2c-0.7,0-1.3,0.3-1.6,0.8v-0.8H204v4.6h1.3v-2.3c0-0.7,0.4-1.2,1-1.2c0.6,0,0.9,0.4,0.9,0.9v2.5h1.3V253  C208.5,251.9,207.9,251.2,206.8,251.2L206.8,251.2z"/>
<path d="M89.3,361.4c-1,0-1.8,0.5-1.8,1.4c0,1.6,2.4,1.2,2.4,1.9c0,0.2-0.2,0.4-0.6,0.4c-0.5,0-1.1-0.2-1.6-0.6l-0.4,0.9  c0.5,0.4,1.2,0.6,2,0.6c1,0,1.9-0.5,1.9-1.4c0-1.6-2.4-1.3-2.4-2c0-0.2,0.2-0.3,0.5-0.3c0.4,0,0.9,0.2,1.4,0.4l0.5-0.9  C90.5,361.6,89.9,361.4,89.3,361.4L89.3,361.4z M92.6,359.4c-0.4,0-0.7,0.3-0.7,0.7c0,0.4,0.3,0.7,0.7,0.7c0.4,0,0.7-0.3,0.7-0.7  C93.3,359.7,93,359.4,92.6,359.4L92.6,359.4z M93.3,366v-4.6H92v4.6H93.3L93.3,366z M97.4,361.4c-0.7,0-1.3,0.3-1.6,0.8v-0.8h-1.3  v4.6h1.3v-2.3c0-0.7,0.4-1.2,1-1.2c0.6,0,0.9,0.4,0.9,0.9v2.5h1.3v-2.9C99.1,362.1,98.4,361.4,97.4,361.4L97.4,361.4z M104.5,361.5  h-1.3v0.6c-0.3-0.4-0.8-0.7-1.4-0.7c-1.2,0-2,0.9-2,2.2c0,1.3,0.8,2.2,2,2.2c0.6,0,1.1-0.2,1.4-0.7v0.5c0,0.6-0.5,1-1.2,1  c-0.5,0-1-0.2-1.4-0.5l-0.5,0.9c0.5,0.4,1.2,0.6,2,0.6c1.5,0,2.4-0.8,2.4-2.1V361.5L104.5,361.5z M102.1,364.8  c-0.6,0-1.1-0.5-1.1-1.2c0-0.7,0.4-1.2,1.1-1.2s1.1,0.5,1.1,1.2C103.2,364.3,102.8,364.8,102.1,364.8L102.1,364.8z M107,366v-6.3  h-1.3v6.3H107L107,366z M110.3,361.4c-1.4,0-2.4,0.9-2.4,2.3c0,1.4,0.9,2.3,2.4,2.3c0.8,0,1.5-0.3,2-0.8l-0.7-0.7  c-0.3,0.3-0.7,0.5-1.2,0.5c-0.6,0-1-0.3-1.2-0.9h3.3C112.7,362.5,111.9,361.4,110.3,361.4L110.3,361.4z M109.3,363.4  c0.1-0.6,0.5-1,1.1-1c0.6,0,1,0.4,1,1H109.3L109.3,363.4z M120,359.7h-1.3v2.4c-0.3-0.5-0.8-0.7-1.5-0.7c-1.3,0-2.1,0.9-2.1,2.3  c0,1.4,0.9,2.4,2.2,2.4c0.6,0,1.1-0.3,1.4-0.7v0.7h1.3V359.7L120,359.7z M117.6,365c-0.7,0-1.1-0.5-1.2-1.3c0-0.7,0.5-1.3,1.2-1.3  c0.7,0,1.1,0.5,1.1,1.3C118.7,364.5,118.2,365,117.6,365L117.6,365z M123.3,361.4c-1.4,0-2.4,0.9-2.4,2.3c0,1.4,0.9,2.3,2.4,2.3  c0.8,0,1.5-0.3,2-0.8l-0.7-0.7c-0.3,0.3-0.7,0.5-1.2,0.5c-0.6,0-1-0.3-1.2-0.9h3.3C125.6,362.5,124.9,361.4,123.3,361.4L123.3,361.4  z M122.2,363.4c0.1-0.6,0.5-1,1.1-1c0.6,0,1,0.4,1,1H122.2L122.2,363.4z M128.6,366l1.7-4.6h-1.3l-1.1,3.3l-1.1-3.3l-1.4,0l1.7,4.6  H128.6L128.6,366z M131.6,359.4c-0.4,0-0.7,0.3-0.7,0.7c0,0.4,0.3,0.7,0.7,0.7s0.7-0.3,0.7-0.7C132.3,359.7,132,359.4,131.6,359.4  L131.6,359.4z M132.3,366v-4.6H131v4.6H132.3L132.3,366z M135.5,361.4c-1.4,0-2.3,0.9-2.3,2.3c0,1.4,0.9,2.3,2.3,2.3  c0.9,0,1.6-0.4,2-1l-0.9-0.6c-0.2,0.4-0.6,0.5-1.1,0.5c-0.6,0-1.1-0.5-1.1-1.2c0-0.7,0.5-1.2,1.1-1.2c0.5,0,0.8,0.2,1,0.5l0.9-0.6  C137,361.8,136.3,361.4,135.5,361.4L135.5,361.4z M140.1,361.4c-1.4,0-2.4,0.9-2.4,2.3c0,1.4,0.9,2.3,2.4,2.3c0.8,0,1.5-0.3,2-0.8  l-0.7-0.7c-0.3,0.3-0.7,0.5-1.2,0.5c-0.6,0-1-0.3-1.2-0.9h3.3C142.5,362.5,141.7,361.4,140.1,361.4L140.1,361.4z M139.1,363.4  c0.1-0.6,0.5-1,1.1-1c0.6,0,1,0.4,1,1H139.1L139.1,363.4z M149.8,359.7h-1.3v2.4c-0.3-0.5-0.8-0.7-1.5-0.7c-1.3,0-2.1,0.9-2.1,2.3  c0,1.4,0.9,2.4,2.2,2.4c0.6,0,1.1-0.3,1.4-0.7v0.7h1.3V359.7L149.8,359.7z M147.3,365c-0.7,0-1.1-0.5-1.2-1.3c0-0.7,0.5-1.3,1.2-1.3  c0.7,0,1.1,0.5,1.1,1.3C148.5,364.5,148,365,147.3,365L147.3,365z M153.1,361.4c-1.4,0-2.4,0.9-2.4,2.3c0,1.4,0.9,2.3,2.4,2.3  c0.8,0,1.5-0.3,2-0.8l-0.7-0.7c-0.3,0.3-0.7,0.5-1.2,0.5c-0.6,0-1-0.3-1.2-0.9h3.3C155.4,362.5,154.7,361.4,153.1,361.4L153.1,361.4  z M152,363.4c0.1-0.6,0.5-1,1.1-1c0.6,0,1,0.4,1,1H152L152,363.4z M162.2,361.4c-0.8,0-1.4,0.3-1.6,1.1c-0.2-0.7-0.8-1.1-1.5-1.1  c-0.7,0-1.2,0.3-1.5,0.8v-0.8h-1.3v4.6h1.3v-2.3c0-0.7,0.4-1.2,1-1.2c0.5,0,0.9,0.3,0.9,0.9v2.5h1.3v-2.3c0-0.7,0.4-1.2,1-1.2  c0.5,0,0.9,0.3,0.9,0.9v2.5h1.3v-2.9C163.9,362.1,163.2,361.4,162.2,361.4L162.2,361.4z M167.1,361.4c-1.5,0-2.5,0.9-2.5,2.3  c0,1.4,1,2.3,2.5,2.3c1.5,0,2.4-0.9,2.4-2.3C169.5,362.3,168.5,361.4,167.1,361.4L167.1,361.4z M167.1,362.5c0.7,0,1.1,0.5,1.1,1.3  c0,0.7-0.5,1.3-1.1,1.3c-0.7,0-1.1-0.5-1.1-1.3C165.9,363,166.4,362.5,167.1,362.5L167.1,362.5z M173.3,361.4  c-0.7,0-1.3,0.3-1.6,0.8v-0.8h-1.3v4.6h1.3v-2.3c0-0.7,0.4-1.2,1-1.2c0.6,0,0.9,0.4,0.9,0.9v2.5h1.3v-2.9  C174.9,362.1,174.3,361.4,173.3,361.4L173.3,361.4z M177.6,361.4c-1,0-1.8,0.5-1.8,1.4c0,1.6,2.4,1.2,2.4,1.9c0,0.2-0.2,0.4-0.6,0.4  c-0.5,0-1.1-0.2-1.6-0.6l-0.4,0.9c0.5,0.4,1.2,0.6,2,0.6c1,0,1.9-0.5,1.9-1.4c0-1.6-2.4-1.3-2.4-2c0-0.2,0.2-0.3,0.5-0.3  c0.4,0,0.9,0.2,1.4,0.4l0.4-0.9C178.9,361.6,178.3,361.4,177.6,361.4L177.6,361.4z M182.9,364.8c-0.2,0.1-0.4,0.2-0.6,0.2  c-0.3,0-0.4-0.1-0.4-0.5v-1.9h1.2v-0.9h-1.2v-1.3h-1.3v1.3h-0.6v0.9h0.6v2.1c0,0.9,0.6,1.4,1.4,1.4c0.4,0,0.8-0.1,1.2-0.3  L182.9,364.8L182.9,364.8z M185.2,361.5h-1.3v4.6h1.3v-2.2c0-0.8,0.6-1.3,1.5-1.2v-1.2c-0.7,0-1.2,0.3-1.5,0.9V361.5L185.2,361.5z   M190,366h1.3l0-3c0-1-0.7-1.6-1.9-1.6c-0.8,0-1.4,0.2-2.1,0.5l0.4,0.9c0.5-0.3,1-0.4,1.4-0.4c0.6,0,1,0.3,1,0.8v0.1h-1.3  c-1.1,0-1.7,0.5-1.7,1.4c0,0.8,0.6,1.4,1.6,1.4c0.6,0,1.1-0.2,1.4-0.6V366L190,366z M188.9,365.2c-0.4,0-0.7-0.2-0.7-0.6  c0-0.4,0.2-0.5,0.7-0.5h1v0.4C189.9,364.9,189.5,365.2,188.9,365.2L188.9,365.2z M194.9,364.8c-0.2,0.1-0.4,0.2-0.6,0.2  c-0.3,0-0.4-0.1-0.4-0.5v-1.9h1.2v-0.9h-1.2v-1.3h-1.3v1.3H192v0.9h0.6v2.1c0,0.9,0.6,1.4,1.4,1.4c0.4,0,0.9-0.1,1.2-0.3  L194.9,364.8L194.9,364.8z M196.7,359.4c-0.4,0-0.7,0.3-0.7,0.7c0,0.4,0.3,0.7,0.7,0.7c0.4,0,0.7-0.3,0.7-0.7  C197.4,359.7,197.1,359.4,196.7,359.4L196.7,359.4z M197.3,366v-4.6H196v4.6H197.3L197.3,366z M200.6,361.4c-1.5,0-2.5,0.9-2.5,2.3  c0,1.4,1,2.3,2.5,2.3c1.5,0,2.4-0.9,2.4-2.3C203.1,362.3,202.1,361.4,200.6,361.4L200.6,361.4z M200.6,362.5c0.7,0,1.1,0.5,1.1,1.3  c0,0.7-0.5,1.3-1.1,1.3c-0.7,0-1.1-0.5-1.1-1.3C199.5,363,200,362.5,200.6,362.5L200.6,362.5z M206.8,361.4c-0.7,0-1.3,0.3-1.6,0.8  v-0.8H204v4.6h1.3v-2.3c0-0.7,0.4-1.2,1-1.2c0.6,0,0.9,0.4,0.9,0.9v2.5h1.3v-2.9C208.5,362.1,207.9,361.4,206.8,361.4L206.8,361.4z"/>
<path d="M135,349.8c-1.8,0-3.2,1.3-3.2,3c0,1.7,1.3,3,3.1,3c0.9,0,1.8-0.4,2.4-1.1l-0.8-0.9c-0.4,0.4-1,0.7-1.5,0.7  c-1,0-1.8-0.8-1.8-1.8c0-1,0.8-1.8,1.8-1.8c0.6,0,1.1,0.3,1.5,0.8l0.8-1C136.8,350.2,135.9,349.8,135,349.8L135,349.8z M140.1,351.2  c-1.5,0-2.5,0.9-2.5,2.3c0,1.4,1,2.3,2.5,2.3c1.5,0,2.4-0.9,2.4-2.3C142.6,352.1,141.6,351.2,140.1,351.2L140.1,351.2z M140.1,352.3  c0.7,0,1.1,0.5,1.1,1.3c0,0.7-0.5,1.3-1.1,1.3c-0.7,0-1.1-0.5-1.1-1.3C139,352.8,139.4,352.3,140.1,352.3L140.1,352.3z M149.5,351.2  c-0.8,0-1.4,0.3-1.7,1.1c-0.2-0.7-0.8-1.1-1.5-1.1c-0.7,0-1.2,0.3-1.5,0.8v-0.8h-1.3v4.6h1.3v-2.3c0-0.7,0.4-1.2,1-1.2  c0.5,0,0.9,0.3,0.9,0.9v2.5h1.3v-2.3c0-0.7,0.4-1.2,1-1.2c0.5,0,0.9,0.3,0.9,0.9v2.5h1.3V353C151.1,351.9,150.5,351.2,149.5,351.2  L149.5,351.2z M158.3,351.2c-0.8,0-1.4,0.3-1.7,1.1c-0.2-0.7-0.8-1.1-1.5-1.1c-0.7,0-1.2,0.3-1.5,0.8v-0.8h-1.3v4.6h1.3v-2.3  c0-0.7,0.4-1.2,1-1.2c0.5,0,0.9,0.3,0.9,0.9v2.5h1.3v-2.3c0-0.7,0.4-1.2,1-1.2c0.5,0,0.9,0.3,0.9,0.9v2.5h1.3V353  C160,351.9,159.3,351.2,158.3,351.2L158.3,351.2z M163.1,351.2c-1.4,0-2.4,0.9-2.4,2.3c0,1.4,0.9,2.3,2.4,2.3c0.8,0,1.5-0.3,2-0.8  l-0.7-0.7c-0.3,0.3-0.7,0.5-1.2,0.5c-0.6,0-1-0.3-1.2-0.9h3.3C165.4,352.3,164.7,351.2,163.1,351.2L163.1,351.2z M162,353.2  c0.1-0.6,0.5-1,1.1-1c0.6,0,1,0.4,1,1H162L162,353.2z M167.5,351.3h-1.3v4.6h1.3v-2.2c0-0.8,0.6-1.3,1.5-1.2v-1.2  c-0.7,0-1.2,0.3-1.5,0.9V351.3L167.5,351.3z M171.7,351.2c-1.4,0-2.3,0.9-2.3,2.3c0,1.4,0.9,2.3,2.3,2.3c0.9,0,1.6-0.4,2-1l-0.9-0.6  c-0.2,0.4-0.6,0.5-1.1,0.5c-0.6,0-1.1-0.5-1.1-1.2c0-0.7,0.5-1.2,1.1-1.2c0.5,0,0.8,0.2,1,0.5l0.9-0.6  C173.2,351.6,172.5,351.2,171.7,351.2L171.7,351.2z M175.1,349.2c-0.4,0-0.7,0.3-0.7,0.7s0.3,0.7,0.7,0.7c0.4,0,0.7-0.3,0.7-0.7  S175.6,349.2,175.1,349.2L175.1,349.2z M175.8,355.8v-4.6h-1.3v4.6H175.8L175.8,355.8z M179.7,355.8h1.3l0-3c0-1-0.7-1.6-1.9-1.6  c-0.8,0-1.4,0.2-2.1,0.5l0.4,0.9c0.5-0.3,1-0.4,1.4-0.4c0.6,0,1,0.3,1,0.8v0.1h-1.3c-1.1,0-1.7,0.5-1.7,1.4c0,0.8,0.6,1.4,1.6,1.4  c0.6,0,1.1-0.2,1.4-0.6V355.8L179.7,355.8z M178.6,355c-0.4,0-0.7-0.2-0.7-0.6c0-0.4,0.2-0.5,0.7-0.5h1v0.4  C179.6,354.7,179.2,355,178.6,355L178.6,355z M183.5,355.8v-6.3h-1.3v6.3H183.5L183.5,355.8z M186.8,353.7v-0.9h-2.2v0.9H186.8  L186.8,353.7z M189.5,351.2c-1,0-1.8,0.5-1.8,1.4c0,1.6,2.4,1.2,2.4,1.9c0,0.2-0.2,0.4-0.6,0.4c-0.5,0-1.1-0.2-1.6-0.6l-0.4,0.9  c0.5,0.4,1.2,0.6,2,0.6c1,0,1.9-0.5,1.9-1.4c0-1.6-2.4-1.3-2.4-2c0-0.2,0.2-0.3,0.5-0.3c0.4,0,0.9,0.2,1.4,0.4l0.5-0.9  C190.8,351.4,190.1,351.2,189.5,351.2L189.5,351.2z M194.1,351.2c-1.4,0-2.3,0.9-2.3,2.3c0,1.4,0.9,2.3,2.3,2.3c0.9,0,1.6-0.4,2-1  l-0.9-0.6c-0.2,0.4-0.6,0.5-1.1,0.5c-0.6,0-1.1-0.5-1.1-1.2c0-0.7,0.5-1.2,1.1-1.2c0.5,0,0.8,0.2,1,0.5l0.9-0.6  C195.7,351.6,195,351.2,194.1,351.2L194.1,351.2z M199.5,355.8h1.3l0-3c0-1-0.7-1.6-1.9-1.6c-0.8,0-1.4,0.2-2.1,0.5l0.4,0.9  c0.5-0.3,1-0.4,1.4-0.4c0.6,0,1,0.3,1,0.8v0.1h-1.3c-1.1,0-1.7,0.5-1.7,1.4c0,0.8,0.6,1.4,1.6,1.4c0.6,0,1.1-0.2,1.4-0.6V355.8  L199.5,355.8z M198.4,355c-0.4,0-0.7-0.2-0.7-0.6c0-0.4,0.2-0.5,0.7-0.5h1v0.4C199.4,354.7,199,355,198.4,355L198.4,355z   M203.3,355.8v-6.3H202v6.3H203.3L203.3,355.8z M206.5,351.2c-1.4,0-2.4,0.9-2.4,2.3c0,1.4,0.9,2.3,2.4,2.3c0.8,0,1.5-0.3,2-0.8  l-0.7-0.7c-0.3,0.3-0.7,0.5-1.2,0.5c-0.6,0-1-0.3-1.2-0.9h3.3C208.9,352.3,208.1,351.2,206.5,351.2L206.5,351.2z M205.5,353.2  c0.1-0.6,0.5-1,1.1-1c0.6,0,1,0.4,1,1H205.5L205.5,353.2z"/>
<path d="M379.4,198.8c-1.8,0-3.2,1.3-3.2,3c0,1.7,1.3,3,3.1,3c0.9,0,1.8-0.4,2.4-1.1L381,203c-0.4,0.4-1,0.7-1.5,0.7  c-1,0-1.8-0.8-1.8-1.8s0.8-1.8,1.8-1.8c0.6,0,1.1,0.3,1.5,0.8l0.8-1C381.2,199.2,380.3,198.8,379.4,198.8L379.4,198.8z M384.5,200.2  c-1.5,0-2.5,0.9-2.5,2.3c0,1.4,1,2.3,2.5,2.3c1.5,0,2.4-0.9,2.4-2.3C386.9,201.1,386,200.2,384.5,200.2L384.5,200.2z M384.5,201.3  c0.7,0,1.1,0.5,1.1,1.3c0,0.7-0.5,1.3-1.1,1.3c-0.7,0-1.1-0.5-1.1-1.3C383.4,201.8,383.8,201.3,384.5,201.3L384.5,201.3z   M390.7,200.2c-0.7,0-1.3,0.3-1.6,0.8v-0.8h-1.3v4.6h1.3v-2.3c0-0.7,0.4-1.2,1-1.2c0.6,0,0.9,0.4,0.9,0.9v2.5h1.3V202  C392.4,200.9,391.7,200.2,390.7,200.2L390.7,200.2z M395.5,200.2c-1.4,0-2.3,0.9-2.3,2.3c0,1.4,0.9,2.3,2.3,2.3c0.9,0,1.6-0.4,2-1  l-0.9-0.6c-0.2,0.4-0.6,0.5-1.1,0.5c-0.6,0-1.1-0.5-1.1-1.2c0-0.7,0.4-1.2,1.1-1.2c0.4,0,0.8,0.2,1,0.5l0.9-0.6  C397,200.6,396.3,200.2,395.5,200.2L395.5,200.2z M400.1,200.2c-1.4,0-2.4,0.9-2.4,2.3c0,1.4,0.9,2.3,2.4,2.3c0.8,0,1.5-0.3,2-0.8  l-0.7-0.7c-0.3,0.3-0.7,0.5-1.2,0.5c-0.6,0-1-0.3-1.2-0.9h3.3C402.5,201.3,401.7,200.2,400.1,200.2L400.1,200.2z M399,202.2  c0.1-0.6,0.5-1,1.1-1c0.6,0,1,0.4,1,1H399L399,202.2z M406,200.2c-0.6,0-1.1,0.3-1.4,0.7v-0.7h-1.3v6.2h1.3v-2.3  c0.3,0.5,0.8,0.7,1.5,0.7c1.3,0,2.1-0.9,2.1-2.3C408.2,201.2,407.3,200.2,406,200.2L406,200.2z M405.7,203.8c-0.7,0-1.1-0.5-1.1-1.3  c0-0.7,0.5-1.3,1.1-1.3c0.7,0,1.1,0.5,1.1,1.3C406.8,203.3,406.4,203.8,405.7,203.8L405.7,203.8z M411.6,203.6  c-0.2,0.1-0.4,0.2-0.6,0.2c-0.3,0-0.4-0.1-0.4-0.5v-1.9h1.2v-0.9h-1.2v-1.3h-1.3v1.3h-0.6v0.9h0.6v2.1c0,0.9,0.6,1.4,1.4,1.4  c0.4,0,0.8-0.1,1.2-0.3L411.6,203.6L411.6,203.6z M419.2,198.5h-1.3v2.4c-0.3-0.5-0.8-0.7-1.5-0.7c-1.3,0-2.1,0.9-2.1,2.3  c0,1.4,0.9,2.4,2.2,2.4c0.6,0,1.1-0.3,1.4-0.7v0.7h1.3V198.5L419.2,198.5z M416.8,203.8c-0.7,0-1.1-0.5-1.2-1.3  c0-0.7,0.5-1.3,1.2-1.3c0.7,0,1.1,0.5,1.1,1.3C417.9,203.3,417.4,203.8,416.8,203.8L416.8,203.8z M422.5,200.2  c-1.4,0-2.4,0.9-2.4,2.3c0,1.4,0.9,2.3,2.4,2.3c0.8,0,1.5-0.3,2-0.8l-0.7-0.7c-0.3,0.3-0.7,0.5-1.2,0.5c-0.6,0-1-0.3-1.2-0.9h3.3  C424.8,201.3,424.1,200.2,422.5,200.2L422.5,200.2z M421.4,202.2c0.1-0.6,0.5-1,1.1-1c0.6,0,1,0.4,1,1H421.4L421.4,202.2z   M427.9,204.8l1.7-4.6h-1.3l-1.1,3.3l-1.1-3.3l-1.4,0l1.7,4.6H427.9L427.9,204.8z M432,200.2c-1.4,0-2.4,0.9-2.4,2.3  c0,1.4,0.9,2.3,2.4,2.3c0.8,0,1.5-0.3,2-0.8l-0.7-0.7c-0.3,0.3-0.7,0.5-1.2,0.5c-0.6,0-1-0.3-1.2-0.9h3.3  C434.3,201.3,433.6,200.2,432,200.2L432,200.2z M430.9,202.2c0.1-0.6,0.5-1,1.1-1c0.6,0,1,0.4,1,1H430.9L430.9,202.2z M436.4,204.8  v-6.3h-1.3v6.3H436.4L436.4,204.8z M439.8,200.2c-1.5,0-2.5,0.9-2.5,2.3c0,1.4,1,2.3,2.5,2.3c1.5,0,2.4-0.9,2.4-2.3  C442.3,201.1,441.3,200.2,439.8,200.2L439.8,200.2z M439.8,201.3c0.7,0,1.1,0.5,1.1,1.3c0,0.7-0.5,1.3-1.1,1.3  c-0.7,0-1.1-0.5-1.1-1.3C438.7,201.8,439.1,201.3,439.8,201.3L439.8,201.3z M445.9,200.2c-0.6,0-1.1,0.3-1.4,0.7v-0.7h-1.3v6.2h1.3  v-2.3c0.3,0.5,0.8,0.7,1.5,0.7c1.3,0,2.1-0.9,2.1-2.3C448.1,201.2,447.2,200.2,445.9,200.2L445.9,200.2z M445.6,203.8  c-0.7,0-1.1-0.5-1.1-1.3c0-0.7,0.5-1.3,1.1-1.3s1.1,0.5,1.1,1.3C446.7,203.3,446.3,203.8,445.6,203.8L445.6,203.8z M455,200.2  c-0.8,0-1.4,0.3-1.6,1.1c-0.2-0.7-0.8-1.1-1.5-1.1c-0.7,0-1.2,0.3-1.5,0.8v-0.8h-1.3v4.6h1.3v-2.3c0-0.7,0.4-1.2,1-1.2  c0.5,0,0.9,0.3,0.9,0.9v2.5h1.3v-2.3c0-0.7,0.4-1.2,1-1.2c0.5,0,0.9,0.3,0.9,0.9v2.5h1.3V202C456.6,200.9,456,200.2,455,200.2  L455,200.2z M459.7,200.2c-1.4,0-2.4,0.9-2.4,2.3c0,1.4,0.9,2.3,2.4,2.3c0.8,0,1.5-0.3,2-0.8l-0.7-0.7c-0.3,0.3-0.7,0.5-1.2,0.5  c-0.6,0-1-0.3-1.2-0.9h3.3C462.1,201.3,461.3,200.2,459.7,200.2L459.7,200.2z M458.7,202.2c0.1-0.6,0.5-1,1.1-1c0.6,0,1,0.4,1,1  H458.7L458.7,202.2z M465.7,200.2c-0.7,0-1.3,0.3-1.6,0.8v-0.8h-1.3v4.6h1.3v-2.3c0-0.7,0.4-1.2,1-1.2c0.6,0,0.9,0.4,0.9,0.9v2.5  h1.3V202C467.4,200.9,466.8,200.2,465.7,200.2L465.7,200.2z M471.1,203.6c-0.2,0.1-0.4,0.2-0.6,0.2c-0.3,0-0.4-0.1-0.4-0.5v-1.9h1.2  v-0.9H470v-1.3h-1.3v1.3h-0.6v0.9h0.6v2.1c0,0.9,0.6,1.4,1.4,1.4c0.4,0,0.8-0.1,1.2-0.3L471.1,203.6L471.1,203.6z"/>
<path d="M378.9,298.8c-1.4,0-2.3,0.7-2.3,1.8c0,2.1,3.2,1.5,3.2,2.6c0,0.4-0.3,0.6-0.9,0.6c-0.6,0-1.5-0.3-2.1-0.9l-0.5,1.1  c0.7,0.6,1.6,0.9,2.6,0.9c1.3,0,2.3-0.6,2.3-1.8c0-2.1-3.2-1.5-3.2-2.6c0-0.3,0.3-0.5,0.8-0.5c0.5,0,1.2,0.2,1.9,0.6l0.5-1.1  C380.5,299.1,379.7,298.8,378.9,298.8L378.9,298.8z M384,300.2c-1.4,0-2.3,0.9-2.3,2.3c0,1.4,0.9,2.3,2.3,2.3c0.9,0,1.6-0.4,2-1  l-0.9-0.6c-0.2,0.4-0.6,0.5-1.1,0.5c-0.6,0-1.1-0.5-1.1-1.2c0-0.7,0.4-1.2,1.1-1.2c0.5,0,0.8,0.2,1,0.5l0.9-0.6  C385.6,300.6,384.9,300.2,384,300.2L384,300.2z M389.4,304.8h1.3l0-3c0-1-0.7-1.6-1.9-1.6c-0.8,0-1.4,0.2-2.1,0.5l0.4,0.9  c0.5-0.3,1-0.4,1.4-0.4c0.6,0,1,0.3,1,0.8v0.1h-1.3c-1.1,0-1.7,0.5-1.7,1.4c0,0.8,0.6,1.4,1.6,1.4c0.6,0,1.1-0.2,1.4-0.6V304.8  L389.4,304.8z M388.3,304c-0.4,0-0.7-0.2-0.7-0.6c0-0.4,0.2-0.5,0.7-0.5h1v0.4C389.3,303.7,388.9,304,388.3,304L388.3,304z   M393.1,304.8v-6.3h-1.3v6.3H393.1L393.1,304.8z M396.4,300.2c-1.4,0-2.4,0.9-2.4,2.3c0,1.4,0.9,2.3,2.4,2.3c0.8,0,1.5-0.3,2-0.8  l-0.7-0.7c-0.3,0.3-0.7,0.5-1.2,0.5c-0.6,0-1-0.3-1.2-0.9h3.3C398.8,301.3,398,300.2,396.4,300.2L396.4,300.2z M395.4,302.2  c0.1-0.6,0.5-1,1.1-1c0.6,0,1,0.4,1,1H395.4L395.4,302.2z M404,298.5h-1.3v2.4c-0.3-0.5-0.8-0.7-1.5-0.7c-1.3,0-2.1,0.9-2.1,2.3  c0,1.4,0.9,2.4,2.2,2.4c0.6,0,1.1-0.3,1.4-0.7v0.7h1.3V298.5L404,298.5z M401.6,303.8c-0.7,0-1.1-0.5-1.2-1.3c0-0.7,0.5-1.3,1.2-1.3  c0.7,0,1.1,0.5,1.1,1.3C402.7,303.3,402.3,303.8,401.6,303.8L401.6,303.8z M411.9,298.5h-1.3v2.4c-0.3-0.5-0.8-0.7-1.5-0.7  c-1.3,0-2.1,0.9-2.1,2.3c0,1.4,0.9,2.4,2.2,2.4c0.6,0,1.1-0.3,1.4-0.7v0.7h1.3V298.5L411.9,298.5z M409.5,303.8  c-0.7,0-1.1-0.5-1.2-1.3c0-0.7,0.5-1.3,1.2-1.3c0.7,0,1.1,0.5,1.1,1.3C410.6,303.3,410.1,303.8,409.5,303.8L409.5,303.8z   M415.2,300.2c-1.4,0-2.4,0.9-2.4,2.3c0,1.4,0.9,2.3,2.4,2.3c0.8,0,1.5-0.3,2-0.8l-0.7-0.7c-0.3,0.3-0.7,0.5-1.2,0.5  c-0.6,0-1-0.3-1.2-0.9h3.3C417.5,301.3,416.8,300.2,415.2,300.2L415.2,300.2z M414.1,302.2c0.1-0.6,0.5-1,1.1-1c0.6,0,1,0.4,1,1  H414.1L414.1,302.2z M424.4,300.2c-0.8,0-1.4,0.3-1.6,1.1c-0.2-0.7-0.8-1.1-1.5-1.1c-0.7,0-1.2,0.3-1.5,0.8v-0.8h-1.3v4.6h1.3v-2.3  c0-0.7,0.4-1.2,1-1.2c0.5,0,0.9,0.3,0.9,0.9v2.5h1.3v-2.3c0-0.7,0.4-1.2,1-1.2c0.5,0,0.9,0.3,0.9,0.9v2.5h1.3V302  C426,300.9,425.4,300.2,424.4,300.2L424.4,300.2z M429.2,300.2c-1.5,0-2.5,0.9-2.5,2.3c0,1.4,1,2.3,2.5,2.3c1.5,0,2.4-0.9,2.4-2.3  C431.6,301.1,430.7,300.2,429.2,300.2L429.2,300.2z M429.2,301.3c0.7,0,1.1,0.5,1.1,1.3c0,0.7-0.5,1.3-1.1,1.3  c-0.7,0-1.1-0.5-1.1-1.3C428.1,301.8,428.5,301.3,429.2,301.3L429.2,301.3z M435.4,300.2c-0.7,0-1.3,0.3-1.6,0.8v-0.8h-1.3v4.6h1.3  v-2.3c0-0.7,0.4-1.2,1-1.2c0.6,0,0.9,0.4,0.9,0.9v2.5h1.3V302C437.1,300.9,436.4,300.2,435.4,300.2L435.4,300.2z M439.8,300.2  c-1,0-1.8,0.5-1.8,1.4c0,1.6,2.4,1.2,2.4,1.9c0,0.2-0.2,0.4-0.6,0.4c-0.5,0-1.1-0.2-1.6-0.6l-0.4,0.9c0.5,0.4,1.2,0.6,2,0.6  c1,0,1.9-0.5,1.9-1.4c0-1.6-2.4-1.3-2.4-2c0-0.2,0.2-0.3,0.5-0.3c0.4,0,0.9,0.2,1.4,0.4l0.5-0.9C441,300.4,440.4,300.2,439.8,300.2  L439.8,300.2z M445,303.6c-0.2,0.1-0.4,0.2-0.6,0.2c-0.3,0-0.4-0.1-0.4-0.5v-1.9h1.2v-0.9H444v-1.3h-1.3v1.3H442v0.9h0.6v2.1  c0,0.9,0.6,1.4,1.4,1.4c0.4,0,0.9-0.1,1.2-0.3L445,303.6L445,303.6z M447.4,300.3h-1.3v4.6h1.3v-2.2c0-0.8,0.6-1.3,1.5-1.2v-1.2  c-0.7,0-1.2,0.3-1.5,0.9V300.3L447.4,300.3z M452.1,304.8h1.3l0-3c0-1-0.7-1.6-1.9-1.6c-0.8,0-1.4,0.2-2.1,0.5l0.4,0.9  c0.5-0.3,1-0.4,1.4-0.4c0.6,0,1,0.3,1,0.8v0.1h-1.3c-1.1,0-1.7,0.5-1.7,1.4c0,0.8,0.6,1.4,1.6,1.4c0.6,0,1.1-0.2,1.4-0.6V304.8  L452.1,304.8z M451,304c-0.4,0-0.7-0.2-0.7-0.6c0-0.4,0.2-0.5,0.7-0.5h1v0.4C452,303.7,451.6,304,451,304L451,304z M457.1,303.6  c-0.2,0.1-0.4,0.2-0.6,0.2c-0.3,0-0.4-0.1-0.4-0.5v-1.9h1.2v-0.9H456v-1.3h-1.3v1.3h-0.6v0.9h0.6v2.1c0,0.9,0.6,1.4,1.4,1.4  c0.4,0,0.8-0.1,1.2-0.3L457.1,303.6L457.1,303.6z M458.8,298.2c-0.4,0-0.7,0.3-0.7,0.7s0.3,0.7,0.7,0.7s0.7-0.3,0.7-0.7  S459.2,298.2,458.8,298.2L458.8,298.2z M459.4,304.8v-4.6h-1.3v4.6H459.4L459.4,304.8z M462.8,300.2c-1.5,0-2.5,0.9-2.5,2.3  c0,1.4,1,2.3,2.5,2.3c1.5,0,2.4-0.9,2.4-2.3C465.2,301.1,464.2,300.2,462.8,300.2L462.8,300.2z M462.8,301.3c0.7,0,1.1,0.5,1.1,1.3  c0,0.7-0.5,1.3-1.1,1.3c-0.7,0-1.1-0.5-1.1-1.3C461.6,301.8,462.1,301.3,462.8,301.3L462.8,301.3z M469,300.2  c-0.7,0-1.3,0.3-1.6,0.8v-0.8h-1.3v4.6h1.3v-2.3c0-0.7,0.4-1.2,1-1.2c0.6,0,0.9,0.4,0.9,0.9v2.5h1.3V302  C470.7,300.9,470,300.2,469,300.2L469,300.2z"/>
<path d="M379.3,414h1.3l0-3c0-1-0.7-1.6-1.9-1.6c-0.8,0-1.4,0.2-2.1,0.5l0.4,0.9c0.5-0.3,1-0.4,1.4-0.4c0.6,0,1,0.3,1,0.8v0.1H378  c-1.1,0-1.7,0.5-1.7,1.4c0,0.8,0.6,1.4,1.6,1.4c0.6,0,1.1-0.2,1.4-0.6V414L379.3,414z M378.2,413.2c-0.4,0-0.7-0.2-0.7-0.6  c0-0.4,0.2-0.5,0.7-0.5h1v0.4C379.2,412.9,378.8,413.2,378.2,413.2L378.2,413.2z M383,409.5h-1.3v4.6h1.3v-2.2  c0-0.8,0.6-1.3,1.5-1.2v-1.2c-0.7,0-1.2,0.3-1.5,0.9V409.5L383,409.5z M386.6,409.5h-1.3v4.6h1.3v-2.2c0-0.8,0.6-1.3,1.5-1.2v-1.2  c-0.7,0-1.2,0.3-1.5,0.9V409.5L386.6,409.5z M391.3,414h1.3l0-3c0-1-0.7-1.6-1.9-1.6c-0.8,0-1.4,0.2-2.1,0.5l0.4,0.9  c0.5-0.3,1-0.4,1.4-0.4c0.6,0,1,0.3,1,0.8v0.1H390c-1.1,0-1.7,0.5-1.7,1.4c0,0.8,0.6,1.4,1.6,1.4c0.6,0,1.1-0.2,1.4-0.6V414  L391.3,414z M390.2,413.2c-0.4,0-0.7-0.2-0.7-0.6c0-0.4,0.2-0.5,0.7-0.5h1v0.4C391.2,412.9,390.8,413.2,390.2,413.2L390.2,413.2z   M397.8,409.5h-1.3l-1.1,3.1l-1.2-3.1h-1.4l1.9,4.5l-0.1,0.3c-0.1,0.3-0.3,0.4-0.6,0.4c-0.2,0-0.4-0.1-0.6-0.2l-0.6,0.9  c0.4,0.3,0.8,0.4,1.2,0.4c0.8,0,1.4-0.4,1.7-1.2L397.8,409.5L397.8,409.5z M405,407.7h-1.3v2.4c-0.3-0.5-0.8-0.7-1.5-0.7  c-1.3,0-2.1,0.9-2.1,2.3c0,1.4,0.9,2.4,2.2,2.4c0.6,0,1.1-0.3,1.4-0.7v0.7h1.3V407.7L405,407.7z M402.5,413c-0.7,0-1.1-0.5-1.2-1.3  c0-0.7,0.5-1.3,1.2-1.3c0.7,0,1.1,0.5,1.1,1.3C403.7,412.5,403.2,413,402.5,413L402.5,413z M408.2,409.4c-1.4,0-2.4,0.9-2.4,2.3  c0,1.4,0.9,2.3,2.4,2.3c0.8,0,1.5-0.3,2-0.8l-0.7-0.7c-0.3,0.3-0.7,0.5-1.2,0.5c-0.6,0-1-0.3-1.2-0.9h3.3  C410.6,410.5,409.9,409.4,408.2,409.4L408.2,409.4z M407.2,411.4c0.1-0.6,0.5-1,1.1-1c0.6,0,1,0.4,1,1H407.2L407.2,411.4z   M417.4,409.4c-0.8,0-1.4,0.3-1.6,1.1c-0.2-0.7-0.8-1.1-1.5-1.1c-0.7,0-1.2,0.3-1.5,0.8v-0.8h-1.3v4.6h1.3v-2.3c0-0.7,0.4-1.2,1-1.2  c0.5,0,0.9,0.3,0.9,0.9v2.5h1.3v-2.3c0-0.7,0.4-1.2,1-1.2c0.5,0,0.9,0.3,0.9,0.9v2.5h1.3v-2.9C419.1,410.1,418.4,409.4,417.4,409.4  L417.4,409.4z M422.3,409.4c-1.5,0-2.5,0.9-2.5,2.3c0,1.4,1,2.3,2.5,2.3c1.5,0,2.4-0.9,2.4-2.3C424.7,410.3,423.7,409.4,422.3,409.4  L422.3,409.4z M422.3,410.5c0.7,0,1.1,0.5,1.1,1.3c0,0.7-0.5,1.3-1.1,1.3c-0.7,0-1.1-0.5-1.1-1.3C421.1,411,421.6,410.5,422.3,410.5  L422.3,410.5z M428.5,409.4c-0.7,0-1.3,0.3-1.6,0.8v-0.8h-1.3v4.6h1.3v-2.3c0-0.7,0.4-1.2,1-1.2c0.6,0,0.9,0.4,0.9,0.9v2.5h1.3v-2.9  C430.1,410.1,429.5,409.4,428.5,409.4L428.5,409.4z M432.8,409.4c-1,0-1.8,0.5-1.8,1.4c0,1.6,2.4,1.2,2.4,1.9c0,0.2-0.2,0.4-0.6,0.4  c-0.5,0-1.1-0.2-1.6-0.6l-0.4,0.9c0.5,0.4,1.2,0.6,2,0.6c1,0,1.9-0.5,1.9-1.4c0-1.6-2.4-1.3-2.4-2c0-0.2,0.2-0.3,0.5-0.3  c0.4,0,0.9,0.2,1.4,0.4l0.4-0.9C434.1,409.6,433.4,409.4,432.8,409.4L432.8,409.4z M438.1,412.8c-0.2,0.1-0.4,0.2-0.6,0.2  c-0.3,0-0.4-0.1-0.4-0.5v-1.9h1.2v-0.9H437v-1.3h-1.3v1.3h-0.6v0.9h0.6v2.1c0,0.9,0.6,1.4,1.4,1.4c0.4,0,0.8-0.1,1.2-0.3  L438.1,412.8L438.1,412.8z M440.4,409.5h-1.3v4.6h1.3v-2.2c0-0.8,0.6-1.3,1.5-1.2v-1.2c-0.7,0-1.2,0.3-1.5,0.9V409.5L440.4,409.5z   M445.2,414h1.3l0-3c0-1-0.7-1.6-1.9-1.6c-0.8,0-1.4,0.2-2.1,0.5l0.4,0.9c0.5-0.3,1-0.4,1.4-0.4c0.6,0,1,0.3,1,0.8v0.1h-1.3  c-1.1,0-1.7,0.5-1.7,1.4c0,0.8,0.6,1.4,1.6,1.4c0.6,0,1.1-0.2,1.4-0.6V414L445.2,414z M444.1,413.2c-0.4,0-0.7-0.2-0.7-0.6  c0-0.4,0.2-0.5,0.7-0.5h1v0.4C445.1,412.9,444.6,413.2,444.1,413.2L444.1,413.2z M450.1,412.8c-0.2,0.1-0.4,0.2-0.6,0.2  c-0.3,0-0.4-0.1-0.4-0.5v-1.9h1.2v-0.9h-1.2v-1.3h-1.3v1.3h-0.6v0.9h0.6v2.1c0,0.9,0.6,1.4,1.4,1.4c0.4,0,0.8-0.1,1.2-0.3  L450.1,412.8L450.1,412.8z M451.8,407.4c-0.4,0-0.7,0.3-0.7,0.7c0,0.4,0.3,0.7,0.7,0.7c0.4,0,0.7-0.3,0.7-0.7  C452.6,407.7,452.3,407.4,451.8,407.4L451.8,407.4z M452.5,414v-4.6h-1.3v4.6H452.5L452.5,414z M455.8,409.4c-1.5,0-2.5,0.9-2.5,2.3  c0,1.4,1,2.3,2.5,2.3c1.5,0,2.4-0.9,2.4-2.3C458.3,410.3,457.3,409.4,455.8,409.4L455.8,409.4z M455.8,410.5c0.7,0,1.1,0.5,1.1,1.3  c0,0.7-0.5,1.3-1.1,1.3c-0.7,0-1.1-0.5-1.1-1.3C454.7,411,455.1,410.5,455.8,410.5L455.8,410.5z M462,409.4c-0.7,0-1.3,0.3-1.6,0.8  v-0.8h-1.3v4.6h1.3v-2.3c0-0.7,0.4-1.2,1-1.2c0.6,0,0.9,0.4,0.9,0.9v2.5h1.3v-2.9C463.7,410.1,463.1,409.4,462,409.4L462,409.4z"/>
<path class="st7" d="M416.7,188.2l2.6-0.7l2.6,0.7v0.2c0,1.4-1.2,2.6-2.6,2.6c-1.4,0-2.6-1.2-2.6-2.6V188.2L416.7,188.2z"/>
<path class="st8" d="M421.2,188.2h-4.6c-0.5,0-0.9-0.4-0.9-0.9V181l3.6-0.7l2.9,0.7v6.2C422.1,187.8,421.7,188.2,421.2,188.2  L421.2,188.2L421.2,188.2z"/>
<path class="st9" d="M420.9,180.7v6.5c0,0.5-0.4,0.9-0.9,0.9h1.9c0.5,0,0.9-0.4,0.9-0.9V181L420.9,180.7L420.9,180.7z"/>
<path class="st10" d="M427.8,169.3c0-5.1-3.4-9.2-8.4-9.2c-5.1-0.1-9.4,4.1-9.4,9.2c0,2.7,1.2,5.2,3.1,6.9c1.4,1.2,2.3,2.9,2.6,4.7  l0.1,0.4l7.1,0l0-0.4c0.3-1.8,0.5-3.5,1.9-4.8C426.6,174.5,427.8,172,427.8,169.3L427.8,169.3L427.8,169.3z"/>
<path class="st11" d="M419.4,160.1c-0.4,0-0.7,0-1.1,0.1c4.6,0.5,8.3,4.4,8.3,9.2c0,2.7-1.2,5.1-3,6.8c-1.4,1.3-2.3,2.9-2.6,4.8  l0,0.1h1.9l0-0.1c0.3-1.8,1.2-3.5,2.6-4.8c1.9-1.7,3-4.1,3-6.8C428.5,164.3,424.4,160.2,419.4,160.1L419.4,160.1L419.4,160.1z"/>
<path class="st12" d="M419.4,160.2c-0.2,0-0.3,0-0.5,0c0,0-0.1,0-0.1,0c-0.1,0-0.3,0-0.4,0c0,0,0,0,0,0c0,0,0,0,0,0  c-4.6,0.5-8.2,4.4-8.2,9.1c0,2.7,1.2,5.1,3,6.8c1.4,1.2,2.2,2.9,2.5,4.7l0,0.1l0,0l0,0v6.2c0,0.5,0.4,0.9,0.9,0.9h0v0.2  c0,1.4,1.2,2.6,2.6,2.6c1.4,0,2.6-1.2,2.6-2.6v-0.2h0c0.5,0,0.9-0.4,0.9-0.9V181l0,0l0-0.1c0.3-1.8,1.2-3.5,2.6-4.7  c1.8-1.7,3-4.1,3-6.8C428.4,164.4,424.4,160.3,419.4,160.2L419.4,160.2z M414.3,181.5h7 M414.3,186.2h7 M417.3,183.9h7"/>
<path class="st5" d="M440.1,179.1v-2.6c0-0.3-0.3-0.6-0.6-0.6h-2.5c-0.2-0.7-0.5-1.4-0.8-2l1.8-1.8c0.2-0.2,0.2-0.6,0-0.9l-1.9-1.9  c-0.2-0.2-0.6-0.2-0.9,0l-1.8,1.8c-0.6-0.4-1.3-0.7-2-0.8v-2.5c0-0.3-0.3-0.6-0.6-0.6H428c-0.3,0-0.6,0.3-0.6,0.6v2.5  c-0.7,0.2-1.4,0.5-2,0.8l-1.8-1.8c-0.2-0.2-0.6-0.2-0.9,0l-1.9,1.9c-0.2,0.2-0.2,0.6,0,0.9l1.8,1.8c-0.4,0.6-0.7,1.3-0.8,2h-2.5  c-0.3,0-0.6,0.3-0.6,0.6v2.6c0,0.3,0.3,0.6,0.6,0.6h2.5c0.2,0.7,0.5,1.4,0.8,2l-1.8,1.8c-0.2,0.2-0.2,0.6,0,0.9l1.9,1.9  c0.2,0.2,0.6,0.2,0.9,0l1.8-1.8c0.6,0.4,1.3,0.7,2,0.8v2.5c0,0.3,0.3,0.6,0.6,0.6h2.7c0.3,0,0.6-0.3,0.6-0.6v-2.5  c0.7-0.2,1.4-0.5,2-0.8l1.8,1.8c0.2,0.2,0.6,0.2,0.9,0l1.9-1.9c0.2-0.2,0.2-0.6,0-0.9l-1.8-1.8c0.4-0.6,0.7-1.3,0.8-2h2.5  C439.8,179.7,440.1,179.5,440.1,179.1L440.1,179.1L440.1,179.1z M429.4,181.6c-2.1,0-3.8-1.7-3.8-3.8s1.7-3.8,3.8-3.8  c2.1,0,3.8,1.7,3.8,3.8S431.4,181.6,429.4,181.6L429.4,181.6L429.4,181.6z"/>
<path class="st13" d="M440.1,179.1v-2.6c0-0.3-0.3-0.6-0.6-0.6h-2.5c-0.2-0.7-0.5-1.4-0.8-2l1.8-1.8c0.2-0.2,0.2-0.6,0-0.9l-1.9-1.9  c-0.2-0.2-0.6-0.2-0.9,0l-1.8,1.8c-0.6-0.4-1.3-0.7-2-0.8v-2.5c0-0.3-0.3-0.6-0.6-0.6H428c-0.3,0-0.6,0.3-0.6,0.6v2.5  c-0.7,0.2-1.4,0.5-2,0.8l-1.8-1.8c-0.2-0.2-0.6-0.2-0.9,0l-1.9,1.9c-0.2,0.2-0.2,0.6,0,0.9l1.8,1.8c-0.4,0.6-0.7,1.3-0.8,2h-2.5  c-0.3,0-0.6,0.3-0.6,0.6v2.6c0,0.3,0.3,0.6,0.6,0.6h2.5c0.2,0.7,0.5,1.4,0.8,2l-1.8,1.8c-0.2,0.2-0.2,0.6,0,0.9l1.9,1.9  c0.2,0.2,0.6,0.2,0.9,0l1.8-1.8c0.6,0.4,1.3,0.7,2,0.8v2.5c0,0.3,0.3,0.6,0.6,0.6h2.7c0.3,0,0.6-0.3,0.6-0.6v-2.5  c0.7-0.2,1.4-0.5,2-0.8l1.8,1.8c0.2,0.2,0.6,0.2,0.9,0l1.9-1.9c0.2-0.2,0.2-0.6,0-0.9l-1.8-1.8c0.4-0.6,0.7-1.3,0.8-2h2.5  C439.8,179.7,440.1,179.5,440.1,179.1L440.1,179.1L440.1,179.1z M429.4,181.6c-2.1,0-3.8-1.7-3.8-3.8s1.7-3.8,3.8-3.8  c2.1,0,3.8,1.7,3.8,3.8S431.4,181.6,429.4,181.6L429.4,181.6L429.4,181.6z"/>
<path class="st7" d="M171.1,136.9l2.6-0.7l2.6,0.7v0.2c0,1.4-1.2,2.6-2.6,2.6c-1.4,0-2.6-1.2-2.6-2.6V136.9L171.1,136.9z"/>
<path class="st8" d="M175.6,136.9h-4.6c-0.5,0-0.9-0.4-0.9-0.9v-6.2l3.6-0.7l2.9,0.7v6.2C176.6,136.5,176.2,136.9,175.6,136.9  L175.6,136.9L175.6,136.9z"/>
<path class="st9" d="M175.4,129.5v6.5c0,0.5-0.4,0.9-0.9,0.9h1.9c0.5,0,0.9-0.4,0.9-0.9v-6.2L175.4,129.5L175.4,129.5z"/>
<path class="st10" d="M182.2,118.1c0-5.1-3.4-9.2-8.4-9.2c-5.1-0.1-9.4,4.1-9.4,9.2c0,2.7,1.2,5.2,3.1,6.9c1.4,1.2,2.3,2.9,2.6,4.7  l0.1,0.4l7.1,0l0-0.4c0.3-1.8,0.5-3.5,1.9-4.8C181.1,123.2,182.2,120.8,182.2,118.1L182.2,118.1L182.2,118.1z"/>
<path class="st11" d="M173.8,108.8c-0.4,0-0.7,0-1.1,0c4.6,0.5,8.3,4.4,8.3,9.2c0,2.7-1.2,5.1-3,6.8c-1.4,1.3-2.3,2.9-2.6,4.8l0,0.1  h1.9l0-0.1c0.3-1.8,1.2-3.5,2.6-4.8c1.9-1.7,3-4.1,3-6.8C183,113,178.9,108.9,173.8,108.8L173.8,108.8L173.8,108.8z"/>
<path class="st12" d="M173.8,108.9c-0.2,0-0.3,0-0.5,0c0,0-0.1,0-0.1,0c-0.1,0-0.3,0-0.4,0c0,0,0,0,0,0c0,0,0,0,0,0  c-4.6,0.5-8.2,4.4-8.2,9.1c0,2.7,1.2,5.1,3,6.8c1.4,1.2,2.2,2.9,2.5,4.7l0,0.1h0l0,0v6.2c0,0.5,0.4,0.9,0.9,0.9h0v0.2  c0,1.4,1.2,2.6,2.6,2.6s2.6-1.2,2.6-2.6v-0.2h0c0.5,0,0.9-0.4,0.9-0.9v-6.2l0,0l0-0.1c0.3-1.8,1.2-3.5,2.6-4.7c1.8-1.7,3-4.1,3-6.8  C182.9,113.1,178.8,109,173.8,108.9L173.8,108.9z M174.3,106.9v-2.4 M182,110.6l1.7-1.7 M165.5,125.6l-1.7,1.7 M166.2,109.8  l-1.7-1.7 M181.2,126.4l1.7,1.7 M162.6,117.6h-2.4 M184.9,118.6h2.4 M168.7,130.2h7 M168.7,134.9h7 M171.7,132.6h7"/>
<path class="st4" d="M173.7,122.3c2.3,0,4.1-1.9,4.1-4.1c0-2.3-1.9-4.1-4.1-4.1c-2.3,0-4.1,1.9-4.1,4.1  C169.6,120.4,171.4,122.3,173.7,122.3L173.7,122.3z"/>
<path class="st13" d="M173.7,122.3c2.3,0,4.1-1.9,4.1-4.1c0-2.3-1.9-4.1-4.1-4.1c-2.3,0-4.1,1.9-4.1,4.1  C169.6,120.4,171.4,122.3,173.7,122.3L173.7,122.3z"/>
<path class="st2" d="M173.2,221.2l-1.7-0.1l-6.8,2.9l-0.4,2.9v11.3c0.1,0,0.2,0,0.3-0.1l8.5-5.4c0.2-0.1,0.2-0.3,0.2-0.5v-10.8  C173.3,221.3,173.3,221.2,173.2,221.2L173.2,221.2L173.2,221.2z"/>
<path class="st14" d="M173.2,221.2l-1.7-0.1l-6.8,2.9l-0.4,2.9v11.3c0.1,0,0.2,0,0.3-0.1l8.5-5.4c0.2-0.1,0.2-0.3,0.2-0.5v-10.8  C173.3,221.3,173.3,221.2,173.2,221.2L173.2,221.2L173.2,221.2z"/>
<path class="st15" d="M164.1,225.8l-8.2-5l-1.1,0.5c0,0.1,0,0.1,0,0.2v10.8c0,0.2,0.1,0.4,0.2,0.5l8.6,5.4c0.1,0.1,0.2,0.1,0.3,0.1"/>
<path class="st14" d="M164.1,225.8l-8.2-5l-1.1,0.5c0,0.1,0,0.1,0,0.2v10.8c0,0.2,0.1,0.4,0.2,0.5l8.6,5.4c0.1,0.1,0.2,0.1,0.3,0.1"/>
<path class="st6" d="M180.3,235.3c0.9,0,1.5,0.7,1.5,1.6s-0.7,1.6-1.5,1.6c-0.9,0-1.5-0.7-1.5-1.6S179.4,235.3,180.3,235.3  L180.3,235.3z"/>
<path class="st13" d="M180.3,235.3c0.9,0,1.5,0.7,1.5,1.6s-0.7,1.6-1.5,1.6c-0.9,0-1.5-0.7-1.5-1.6S179.4,235.3,180.3,235.3  L180.3,235.3z"/>
<path class="st6" d="M147.9,235.3c0.9,0,1.5,0.7,1.5,1.6s-0.7,1.6-1.5,1.6c-0.9,0-1.5-0.7-1.5-1.6S147,235.3,147.9,235.3  L147.9,235.3z"/>
<path class="st13" d="M147.9,235.3c0.9,0,1.5,0.7,1.5,1.6s-0.7,1.6-1.5,1.6c-0.9,0-1.5-0.7-1.5-1.6S147,235.3,147.9,235.3  L147.9,235.3z"/>
<path class="st6" d="M164.1,206.2c0.9,0,1.5,0.7,1.5,1.6s-0.7,1.6-1.5,1.6c-0.9,0-1.5-0.7-1.5-1.6S163.2,206.2,164.1,206.2  L164.1,206.2z"/>
<path class="st13" d="M164.1,206.2c0.9,0,1.5,0.7,1.5,1.6s-0.7,1.6-1.5,1.6c-0.9,0-1.5-0.7-1.5-1.6S163.2,206.2,164.1,206.2  L164.1,206.2z"/>
<path class="st12" d="M152.3,228.7v-3.8 M153.6,234.7l-1.3-0.8v-1.5 M175.8,232.4v1.5l-1.3,0.8 M156.7,216.9l3.1-1.9 M168.4,215  L168.4,215l3.1,1.9 M174.5,218.8L174.5,218.8l1.3,0.8v1.5 M152.3,221.1v-1.5l1.3-0.8 M175.8,224.9v3.8 M171.5,236.6L171.5,236.6  l-3.1,1.9 M165.3,240.5L165.3,240.5l-1.2,0.8l-1.2-0.8 M159.8,238.6l-3.1-1.9"/>
<path class="st2" d="M173.2,221L173.2,221l-9.1,5.6L155,221l-0.1,0c0-0.1,0.1-0.2,0.2-0.3l8.7-5.3c0.2-0.1,0.4-0.1,0.5,0l8.7,5.3  C173.1,220.8,173.2,220.9,173.2,221L173.2,221L173.2,221z"/>
<path class="st14" d="M173.2,221L173.2,221l-9.1,5.6L155,221l-0.1,0c0-0.1,0.1-0.2,0.2-0.3l8.7-5.3c0.2-0.1,0.4-0.1,0.5,0l8.7,5.3  C173.1,220.8,173.2,220.9,173.2,221L173.2,221L173.2,221z"/>
<path class="st12" d="M164.1,215.3v-4.8 M178.2,235.3l-4.7-3 M154.6,232.4l-4.7,3"/>
<path class="st3" d="M413,264.3c-0.8,0-1.4,0.6-1.4,1.4v23c0,0.8,0.6,1.4,1.4,1.4h24.2c0.8,0,1.4-0.6,1.4-1.4v-23  c0-0.8-0.6-1.4-1.4-1.4H413L413,264.3z"/>
<path class="st14" d="M413,264.3c-0.8,0-1.4,0.6-1.4,1.4v23c0,0.8,0.6,1.4,1.4,1.4h24.2c0.8,0,1.4-0.6,1.4-1.4v-23  c0-0.8-0.6-1.4-1.4-1.4H413L413,264.3z"/>
<path class="st2" d="M413,275.4c-0.8,0-1.4,0.6-1.4,1.4v11.9c0,0.8,0.6,1.4,1.4,1.4h11.9c0.8,0,1.4-0.6,1.4-1.4v-11.9  c0-0.8-0.6-1.4-1.4-1.4H413L413,275.4z"/>
<path class="st14" d="M413,275.4c-0.8,0-1.4,0.6-1.4,1.4v11.9c0,0.8,0.6,1.4,1.4,1.4h11.9c0.8,0,1.4-0.6,1.4-1.4v-11.9  c0-0.8-0.6-1.4-1.4-1.4H413L413,275.4z"/>
<path class="st12" d="M428.3,275l6.1-6 M429.3,269.2l5.1-0.2l-0.2,5.1"/>
<path class="st16" d="M174.5,321.5l-9.6-5.9l-1.3,0.5c0,0.1,0,0.2,0,0.2v12.7c0,0.2,0.1,0.4,0.3,0.5l10.7,6.4"/>
<path class="st14" d="M174.5,321.5l-9.6-5.9l-1.3,0.5c0,0.1,0,0.2,0,0.2v12.7c0,0.2,0.1,0.4,0.3,0.5l10.7,6.4"/>
<path class="st0" d="M185.1,316.1l-2-0.1l-8,3.4l-0.5,3.4V336c0.1,0,10.3-6.4,10.3-6.4c0.2-0.1,0.3-0.3,0.3-0.5v-12.7  C185.2,316.3,185.2,316.2,185.1,316.1L185.1,316.1L185.1,316.1z"/>
<path class="st14" d="M185.1,316.1l-2-0.1l-8,3.4l-0.5,3.4V336c0.1,0,10.3-6.4,10.3-6.4c0.2-0.1,0.3-0.3,0.3-0.5v-12.7  C185.2,316.3,185.2,316.2,185.1,316.1L185.1,316.1L185.1,316.1z"/>
<path class="st0" d="M185.1,315.9L185.1,315.9l-10.7,6.6l-10.7-6.5l-0.2,0c0-0.1,0.1-0.2,0.3-0.3l10.2-6.3c0.2-0.1,0.4-0.1,0.6,0  l10.2,6.3C185,315.8,185.1,315.8,185.1,315.9L185.1,315.9L185.1,315.9z"/>
<path class="st14" d="M185.1,315.9L185.1,315.9l-10.7,6.6l-10.7-6.5l-0.2,0c0-0.1,0.1-0.2,0.3-0.3l10.2-6.3c0.2-0.1,0.4-0.1,0.6,0  l10.2,6.3C185,315.8,185.1,315.8,185.1,315.9L185.1,315.9L185.1,315.9z"/>
<path class="st17" d="M157.4,318.7c7.6,0,13.7,5.6,13.7,12.5c0,6.9-6.2,12.5-13.7,12.5c-7.6,0-13.7-5.6-13.7-12.5  C143.7,324.3,149.8,318.7,157.4,318.7L157.4,318.7z"/>
<path class="st11" d="M157.4,318.7c-0.2,0-0.5,0-0.7,0c7.3,0.3,13,5.8,13,12.5c0,6.7-5.7,12.2-13,12.5c0.2,0,0.5,0,0.7,0  c7.6,0,13.7-5.6,13.7-12.5C171.2,324.3,165,318.7,157.4,318.7L157.4,318.7L157.4,318.7z"/>
<path class="st18" d="M157.4,321.3c6,0,10.9,4.5,10.9,9.9c0,5.5-4.9,9.9-10.9,9.9s-10.9-4.5-10.9-9.9  C146.5,325.8,151.4,321.3,157.4,321.3L157.4,321.3z"/>
<path class="st12" d="M157.9,319c1.3,0,2.5,0.2,3.7,0.6l-0.4,1.2 M153.2,319.5c1.2-0.4,2.4-0.5,3.7-0.6l0,1.3 M149.1,321.6  c1-0.7,2.1-1.3,3.2-1.7l0.5,1.2 M146,324.7c0.7-1,1.5-1.8,2.4-2.6l0.8,1.1 M144.3,328.1c0.3-0.9,0.6-1.8,1.1-2.7l1.3,0.6 M144,333  c-0.2-1.1-0.2-2.3,0-3.4l1.5,0.2 M156.9,343.5c-6.2-0.2-11.4-4.2-12.7-9.7l1.4-0.3 M161.6,343c-1.2,0.4-2.4,0.6-3.7,0.6l-0.1-1.5   M165.7,340.9c-1,0.7-2.1,1.3-3.2,1.7l-0.4-1.4 M168.9,337.8c-0.7,1-1.5,1.8-2.4,2.6l-0.9-1.4 M170.6,333.8  c-0.3,1.1-0.7,2.2-1.3,3.2l-1.3-0.9 M162.5,319.8c5.8,2.1,9.2,7.5,8.3,13.1l0,0l-1.5-0.4 M149,337.1c-1.4-1.7-2.2-3.8-2.2-5.9  c0-5.3,4.8-9.7,10.6-9.7c2.3,0,4.6,0.7,6.5,2 M166.5,326.2c2.5,3.7,2,8.4-1.2,11.5c-3.2,3.2-8.2,4.1-12.5,2.2"/>
<path class="st19" d="M414.9,376.4l-9.6-5.9l-1.3,0.5c0,0.1,0,0.2,0,0.2V384c0,0.2,0.1,0.4,0.3,0.5l10.7,6.4"/>
<path class="st14" d="M414.9,376.4l-9.6-5.9l-1.3,0.5c0,0.1,0,0.2,0,0.2V384c0,0.2,0.1,0.4,0.3,0.5l10.7,6.4"/>
<path class="st1" d="M425.5,371l-2-0.1l-8,3.4l-0.5,3.4v13.3c0.1,0,10.3-6.4,10.3-6.4c0.2-0.1,0.3-0.3,0.3-0.5v-12.7  C425.6,371.2,425.6,371.1,425.5,371L425.5,371L425.5,371z"/>
<path class="st14" d="M425.5,371l-2-0.1l-8,3.4l-0.5,3.4v13.3c0.1,0,10.3-6.4,10.3-6.4c0.2-0.1,0.3-0.3,0.3-0.5v-12.7  C425.6,371.2,425.6,371.1,425.5,371L425.5,371L425.5,371z"/>
<path class="st1" d="M425.5,370.9L425.5,370.9l-10.7,6.6l-10.7-6.5l-0.2,0c0-0.1,0.1-0.2,0.3-0.3l10.2-6.3c0.2-0.1,0.4-0.1,0.6,0  l10.2,6.3C425.4,370.7,425.5,370.8,425.5,370.9L425.5,370.9L425.5,370.9z"/>
<path class="st14" d="M425.5,370.9L425.5,370.9l-10.7,6.6l-10.7-6.5l-0.2,0c0-0.1,0.1-0.2,0.3-0.3l10.2-6.3c0.2-0.1,0.4-0.1,0.6,0  l10.2,6.3C425.4,370.7,425.5,370.8,425.5,370.9L425.5,370.9L425.5,370.9z"/>
<line class="st12" x1="428.9" y1="384.2" x2="431.1" y2="384.2"/>
<path class="st6" d="M444.9,362.9v-1.5c0-0.2-0.2-0.3-0.3-0.3h-1.4c-0.1-0.4-0.3-0.8-0.5-1.2l1-1c0.1-0.1,0.1-0.4,0-0.5l-1.1-1.1  c-0.1-0.1-0.4-0.1-0.5,0l-1,1c-0.4-0.2-0.7-0.4-1.2-0.5v-1.4c0-0.2-0.2-0.3-0.3-0.3h-1.5c-0.2,0-0.3,0.2-0.3,0.3v1.4  c-0.4,0.1-0.8,0.3-1.2,0.5l-1-1c-0.1-0.1-0.4-0.1-0.5,0l-1.1,1.1c-0.1,0.1-0.1,0.4,0,0.5l1,1c-0.2,0.4-0.4,0.8-0.5,1.2h-1.4  c-0.2,0-0.3,0.2-0.3,0.3v1.5c0,0.2,0.2,0.3,0.3,0.3h1.4c0.1,0.4,0.3,0.8,0.5,1.2l-1,1c-0.1,0.1-0.1,0.4,0,0.5l1.1,1.1  c0.1,0.1,0.4,0.1,0.5,0l1-1c0.4,0.2,0.7,0.4,1.2,0.5v1.4c0,0.2,0.2,0.3,0.3,0.3h1.5c0.2,0,0.3-0.2,0.3-0.3v-1.4  c0.4-0.1,0.8-0.3,1.2-0.5l1,1c0.1,0.1,0.4,0.1,0.5,0l1.1-1.1c0.1-0.1,0.1-0.4,0-0.5l-1-1c0.2-0.4,0.4-0.8,0.5-1.2h1.4  C444.8,363.2,444.9,363.1,444.9,362.9L444.9,362.9L444.9,362.9z M438.9,364.3c-1.2,0-2.1-1-2.1-2.2c0-1.2,1-2.2,2.1-2.2  c1.2,0,2.1,1,2.1,2.2C441,363.3,440.1,364.3,438.9,364.3L438.9,364.3L438.9,364.3z"/>
<path class="st13" d="M444.9,362.9v-1.5c0-0.2-0.2-0.3-0.3-0.3h-1.4c-0.1-0.4-0.3-0.8-0.5-1.2l1-1c0.1-0.1,0.1-0.4,0-0.5l-1.1-1.1  c-0.1-0.1-0.4-0.1-0.5,0l-1,1c-0.4-0.2-0.7-0.4-1.2-0.5v-1.4c0-0.2-0.2-0.3-0.3-0.3h-1.5c-0.2,0-0.3,0.2-0.3,0.3v1.4  c-0.4,0.1-0.8,0.3-1.2,0.5l-1-1c-0.1-0.1-0.4-0.1-0.5,0l-1.1,1.1c-0.1,0.1-0.1,0.4,0,0.5l1,1c-0.2,0.4-0.4,0.8-0.5,1.2h-1.4  c-0.2,0-0.3,0.2-0.3,0.3v1.5c0,0.2,0.2,0.3,0.3,0.3h1.4c0.1,0.4,0.3,0.8,0.5,1.2l-1,1c-0.1,0.1-0.1,0.4,0,0.5l1.1,1.1  c0.1,0.1,0.4,0.1,0.5,0l1-1c0.4,0.2,0.7,0.4,1.2,0.5v1.4c0,0.2,0.2,0.3,0.3,0.3h1.5c0.2,0,0.3-0.2,0.3-0.3v-1.4  c0.4-0.1,0.8-0.3,1.2-0.5l1,1c0.1,0.1,0.4,0.1,0.5,0l1.1-1.1c0.1-0.1,0.1-0.4,0-0.5l-1-1c0.2-0.4,0.4-0.8,0.5-1.2h1.4  C444.8,363.2,444.9,363.1,444.9,362.9L444.9,362.9L444.9,362.9z M438.9,364.3c-1.2,0-2.1-1-2.1-2.2c0-1.2,1-2.2,2.1-2.2  c1.2,0,2.1,1,2.1,2.2C441,363.3,440.1,364.3,438.9,364.3L438.9,364.3L438.9,364.3z"/>
<line class="st20" x1="431" y1="358.2" x2="417.1" y2="358.2"/>
<path class="st21" d="M391.5,365c3.1,0,5.7,2.5,5.7,5.7c0,3.1-2.5,5.7-5.7,5.7c-3.1,0-5.7-2.5-5.7-5.7  C385.9,367.5,388.4,365,391.5,365L391.5,365z"/>
<path class="st6" d="M391.5,366.4c2.3,0,4.3,1.9,4.3,4.3s-1.9,4.3-4.3,4.3c-2.3,0-4.3-1.9-4.3-4.3S389.2,366.4,391.5,366.4  L391.5,366.4z"/>
<path class="st12" d="M391.5,370.7 M388.5,373c-0.5-0.7-0.8-1.5-0.8-2.4c0-2.1,1.7-3.9,3.9-3.9c0.9,0,1.7,0.3,2.4,0.8 M394.8,368.6  c0.9,1.5,0.7,3.3-0.4,4.6c-1.2,1.3-3,1.6-4.5,0.9 M391.2,377.7v2.4 M387.3,367.4c-0.7,0.9-1.1,2.1-1.1,3.2c0,2.9,2.4,5.3,5.3,5.3  c1.2,0,2.3-0.4,3.2-1.1 M396.1,373.5c1.2-2,1-4.6-0.6-6.4c-1.6-1.8-4.1-2.3-6.3-1.2"/>
<path class="st12" d="M414.8,360.6l0-12 M411.3,352.4l3.5-3.7l3.5,3.7"/>
<path class="st12" d="M434.8,384.3l12,0 M443,380.8l3.7,3.5l-3.7,3.5"/>
<path class="st12" d="M395.8,384.3l-12,0 M387.5,380.8l-3.7,3.5l3.7,3.5"/>
<line class="st22" x1="408.2" y1="358.2" x2="393.8" y2="358.2"/>
<path class="st12" d="M412.2,358.2h-1.3 M392.5,358.2h-1.3v1.4 M391.2,362.4v1.4 M397.7,384.2h2"/>
<line class="st23" x1="438.5" y1="381.4" x2="438.5" y2="371.2"/>
</svg>