{
  "consumer": {
    "name": "sg"
  },
  "provider": {
    "name": "slc"
  },
  "interactions": [
    {
      "description": "a request for capex",
      "providerState": "slc 1 exists and has results",
      "request": {
        "method": "GET",
        "path": "/api/projects/1/economical/capex",
        "matchingRules": {
          "$.path": {
            "match": "regex",
            "regex": "\\/api\\/projects\\/\\d+\\/economical\\/capex"
          }
        }
      },
      "response": {
        "status": 200,
        "headers": {
        },
        "body": {
          "capex": 5000000
        },
        "matchingRules": {
          "$.body": {
            "match": "type"
          }
        }
      }
    },
    {
      "description": "a request for irr",
      "providerState": "slc 1 exists and has results",
      "request": {
        "method": "GET",
        "path": "/api/projects/1/financial/irr",
        "matchingRules": {
          "$.path": {
            "match": "regex",
            "regex": "\\/api\\/projects\\/\\d+\\/financial\\/irr"
          }
        }
      },
      "response": {
        "status": 200,
        "headers": {
        },
        "body": {
          "irr": 24.3
        },
        "matchingRules": {
          "$.body": {
            "match": "type"
          }
        }
      }
    },
    {
      "description": "a request for lcoe",
      "providerState": "slc 1 exists and has results",
      "request": {
        "method": "GET",
        "path": "/api/projects/1/economical/lcoe",
        "matchingRules": {
          "$.path": {
            "match": "regex",
            "regex": "\\/api\\/projects\\/\\d+\\/economical\\/lcoe"
          }
        }
      },
      "response": {
        "status": 200,
        "headers": {
        },
        "body": {
          "lcoe": 7.345
        },
        "matchingRules": {
          "$.body": {
            "match": "type"
          }
        }
      }
    },
    {
      "description": "a request for benchmark metrics",
      "providerState": "slc 1 exists and has results",
      "request": {
        "method": "GET",
        "path": "/api/projects/1/benchmark/metrics",
        "matchingRules": {
          "$.path": {
            "match": "regex",
            "regex": "\\/api\\/projects\\/\\d+\\/benchmark\\/metrics"
          }
        }
      },
      "response": {
        "status": 200,
        "headers": {
        },
        "body": {
          "capex_kw": 15945.24,
          "opex_kw": 6782.4
        },
        "matchingRules": {
          "$.body": {
            "match": "type"
          }
        }
      }
    },
    {
      "description": "a request for opex",
      "providerState": "slc 1 exists and has results",
      "request": {
        "method": "GET",
        "path": "/api/projects/1/economical/opex",
        "matchingRules": {
          "$.path": {
            "match": "regex",
            "regex": "\\/api\\/projects\\/\\d+\\/economical\\/opex"
          }
        }
      },
      "response": {
        "status": 200,
        "headers": {
        },
        "body": {
          "opex": {
            "total": 5000000,
            "per_year": 250000
          }
        },
        "matchingRules": {
          "$.body": {
            "match": "type"
          }
        }
      }
    }
  ],
  "metadata": {
    "pactSpecification": {
      "version": "2.0.0"
    }
  }
}